{"page":39,"total":1905,"pages":39,"games":[{"id":28082,"name":"Kick Pong   Table Soccer","slug":"kick-pong-table-soccer","category":8,"categoryName":"Sports Games","tags":[24,7,132,255,99,99,280,171,171],"tagNames":["2 Player Games","Arcade","Cartoon Network","Football","Funny","Funny","Soccer","Sports","Sports"],"width":720,"height":1280,"mobile":false,"plays":0,"rating":"0","description":"Foosball Pong: Arcade Soccer &amp;amp;amp; 2-Player Battles! The ultimate mix of foosball + Pong is here! Swipe, score, and defend in fast 2D matches vs AI or a friend (same-device multiplayer). Easy to learn, hard to master! Why Players Love It: 2-Player Mode &amp;amp;ndash; Battle friends on one device! (Perfect for duels!). Hybrid Gameplay &amp;amp;ndash; Foosball meets Pong in 5-minute arcade chaos! Realistic Physics &amp;amp;ndash; Every shot feels satisfying! Unlock Custom Kits &amp;amp;ndash; Personalize your team! Cup Tournaments &amp;amp;ndash; Win trophies vs AI! Challenge Your Friends! Download now and see who&amp;amp;rsquo;s the foosball champion!","instructions":"Swipe in mobile Arrow keyboard in PC","gameUrl":"https://cdn.jsdelivr.net/gh/xazalea/retrograde@main/game/q0cdps5gwd7bvt6hfrr8i1yxmznwsnfa.html","imageUrl":null,"videoUrl":null},{"id":28100,"name":"BuildTower","slug":"buildtower","category":8,"categoryName":"Sports Games","tags":[16,6,13,41],"tagNames":["1 Player","Adventure","Best Games","Hypercasual"],"width":350,"height":600,"mobile":false,"plays":0,"rating":"0","description":"Seize the opportunity to build a taller tower. The game has multiple levels, and the height of the tower to be built in each level is different. There is an optimal building symbol on each floor of the tower. Seize the opportunity and build the tower at the best position. Give it a try.","instructions":"Mouse click or tap to play","gameUrl":"https://cdn.jsdelivr.net/gh/xazalea/retrograde@main/game/63hu1ckpffmin83h2mu9bxah3do0hjcl.html","imageUrl":null,"videoUrl":null},{"id":28101,"name":"Downhill Snowboard","slug":"downhill-snowboard","category":8,"categoryName":"Sports Games","tags":[16,18,6,41,150,41,126,184,171],"tagNames":["1 Player","2D","Adventure","Hypercasual","endless","Hypercasual","Skills","Snow","Sports"],"width":800,"height":600,"mobile":false,"plays":0,"rating":"0","description":"Downhill Snowboard it is a very challenging game. The objective of the game is to go down the slope and accumulate the highest score you can, collect coins to unlock new characters and snowboards.","instructions":"Use the mouse or touch to interact A D or Arrows","gameUrl":"https://cdn.jsdelivr.net/gh/xazalea/retrograde@main/game/xxlz1gjpdxfhl98zmshxkqg3a90gccvz.html","imageUrl":null,"videoUrl":null},{"id":28102,"name":"City Constructor","slug":"city-constructor","category":8,"categoryName":"Sports Games","tags":[18,139,278,251,491,462,416,169,344,83,423,43,44,164],"tagNames":["2D","Balance","Bridge","building","cargo","construction","demolition","destroying","destruction","Logical","Submachine","Obstacle","Physics","trucks"],"width":960,"height":600,"mobile":false,"plays":0,"rating":"0","description":"Become a heavy machinery operator! In this game, you control excavators, cranes, trucks, and more to solve physics-based puzzles, transport cargo, and complete construction tasks. Realistic mechanics, varied levels, and increasing difficulty make the game both challenging and fun. Use precision and logic to master construction sites, bridges, and mountain terrains. Perfect for all ages &amp;amp;mdash; from vehicle lovers to simulation fans.","instructions":"Desktop A - Move Left D - Move Right W - Move Up S - Move Down Arrow Keys - Control the Arm Spacebar - Grab Release Action TAB - Switch Vehicle ESC - Pause Mobile Use the on-screen controls","gameUrl":"https://cdn.jsdelivr.net/gh/xazalea/retrograde@main/game/6psthwbt96i8afnwmsovc95508t2pt27.html","imageUrl":null,"videoUrl":null},{"id":28103,"name":"Cube to Hole Puzzle","slug":"cube-to-hole-puzzle","category":8,"categoryName":"Sports Games","tags":[483,60,146],"tagNames":["crazygamesunblocked","puzzleblock","Relaxation"],"width":1080,"height":1920,"mobile":false,"plays":0,"rating":"0","description":"Welcome to Cube to Hole Puzzle! Get ready for an exciting and brain-teasing experience! In Cube to Hole Puzzle, your objective is simple: fill the colored cubes into their matching colored holes.","instructions":"Do you have the skills to solve every puzzle With increasing difficulty and new challenges at every level Cube to Hole Puzzle will keep you entertained for hours","gameUrl":"https://cdn.jsdelivr.net/gh/xazalea/retrograde@main/game/r0gtbnuiwo9d7owan4fgrmd54ywcti00.html","imageUrl":null,"videoUrl":null}]}