{"page":119,"total":5909,"pages":119,"games":[{"id":14837,"name":"Anna Frozen Christmas Sweater Design","slug":"anna-frozen-christmas-sweater-design","category":5,"categoryName":"Puzzle Games","tags":[221,405,359,135,360,136,404,310,91,187],"tagNames":["Celebrity","Christmas","Disney","Dress Up","Elsa","Fashion","Frozen","Holiday","Makeover","Princess"],"width":320,"height":480,"mobile":false,"plays":0,"rating":"0","description":"<p>This festive season, immerse yourself in the magical world of Arendelle with the Anna Frozen Christmas Sweater Design game! As Christmas approaches, the beloved sisters Anna and Elsa are ready to spread holiday cheer through their annual Secret Santa celebration. Join these delightful princesses as they embark on a journey filled with laughter, creativity, and festive fun.</p>\\n\\n<p>Help Anna and Elsa prepare for their grand Christmas festivities! They have exciting plans lined up, including dressing up in their most stunning outfits and applying beautiful makeup to enhance their holiday look. But that s not all! They ll also be decorating a magnificent Christmas tree and adding charming ornaments to bring holiday spirit into their home.</p>\\n\\n<p>Are you ready to lend a hand to Anna and Elsa? Dive into creative challenges and let your imagination run wild as you design cozy Christmas sweaters that embody the spirit of the season. Choose from an array of colors, patterns, and festive elements to craft unique styles that reflect the sisters' playful personalities. With your help, this Christmas will indeed be unforgettable.</p>\\n\\n<h3>How to play free Anna Frozen Christmas Sweater Design game online</h3>\\n<p>To play the Anna Frozen Christmas Sweater Design game, simply click on the items to select outfits, makeup, and decorations. Use the mouse to drag and drop different elements onto Anna and Elsa. Combine various styles to create the perfect look before showcasing your Christmas tree decor! Have fun and unleash your creativity!</p>","instructions":"Use Mouse To Touch and Play","gameUrl":null,"imageUrl":null,"videoUrl":"https://cdn.jsdelivr.net/gh/xazalea/retrograde-vid@main/qi87yy8vkfqy17kaxnja8bacn4d3h5bm.mp4"},{"id":14838,"name":"Barbie Christmas DressUp","slug":"barbie-christmas-dressup","category":5,"categoryName":"Puzzle Games","tags":[132,221,405,359,135,136,404,310,91,187],"tagNames":["Cartoon Network","Celebrity","Christmas","Disney","Dress Up","Fashion","Frozen","Holiday","Makeover","Princess"],"width":320,"height":480,"mobile":false,"plays":0,"rating":"0","description":"<p>Christmas has arrived, and the glamorous Barbie princesses are ready to celebrate their annual Secret Santa party! Join them in the magical world of Barbie Christmas DressUp, where the spirit of the holiday will come alive through fun dress-up choices and festive activities. Dress Barbie in stunning outfits adorned with seasonal motifs, from sparkling gowns to cozy holiday wear, creating the perfect look for a delightful Christmas evening.</p>\\n\\n<p>Not only will you have the chance to choose amazing outfits for Barbie, but you ll also get to indulge in makeup sessions that will leave her glowing and ready to shine at the party. Explore a plethora of makeup options including bright lipstick, shimmering eye shadows, and festive nail art to complement Barbie's look. The fun doesn t stop there help Barbie and her friends decorate their Christmas tree with colorful ornaments and twinkling lights, turning their world into a winter wonderland filled with joy and cheer.</p>\\n\\n<p>Make this Christmas unforgettable as you unleash your creative flair! Arrange the decorations just the way you like them, add personalized touches, and set up the perfect ambiance for the party. Join the Barbie princesses in making cherished memories and enjoying the magic of the season with games, laughter, and a little sprinkle of holiday magic!</p>\\n\\n<h3>How to play free Barbie Christmas DressUp game online</h3>\\n<p>To get started, simply click on the play button to enter the game. Use your mouse to navigate through the dress-up, makeup, and decoration options. Choose from a variety of outfits, accessories, and makeup styles. Don t forget to decorate the Christmas tree with charming ornaments and lights. Enjoy your festive experience!</p>","instructions":"Use Mouse To Touch and Play","gameUrl":null,"imageUrl":null,"videoUrl":"https://cdn.jsdelivr.net/gh/xazalea/retrograde-vid@main/8am6jji3jembp2gv0y513ietpkt52adq.mp4"},{"id":14839,"name":"Happy Snowman Hidden","slug":"happy-snowman-hidden","category":5,"categoryName":"Puzzle Games","tags":[99,65,191,34,35,60,126],"tagNames":["Funny","Hidden","html5 games for your site","Kids","Mobile","puzzleblock","Skills"],"width":1280,"height":720,"mobile":false,"plays":0,"rating":"0","description":"<p>Happy Snowman Hidden is a delightful online game that combines skill and adventure in a hidden object format. In this engaging challenge, players are tasked with discovering concealed stars within various beautifully crafted images. Each level presents a new set of visuals, where you must find 10 hidden numbers to progress. With a total of 6 levels to explore, players will find themselves captivated by the cheerful winter theme and charming graphics.</p>\\n\\n<p>The game adds an extra layer of excitement with a countdown timer, urging you to act quickly to uncover all hidden objects before time runs out. To enhance gameplay dynamics, every incorrect click will deduct 5 seconds from your total time, increasing the urgency and challenge. Therefore, precision and focus are essential as you navigate through the scenes, seeking out elusive items while balancing your time management skills.</p>\\n\\n<p>As you immerse yourself in Happy Snowman Hidden, you'll not only enjoy the thrill of a scavenger hunt but also the festive spirit of the winter season. Prepare yourself for an adventure that will test your observational abilities and provide hours of fun. Are you ready to take on the challenge and become the master of hidden objects? Jump into the game now and let the exploration begin!</p>\\n\\n<h3>How to play free Happy Snowman Hidden game online</h3>\\n\\n<p>To play Happy Snowman Hidden, simply click on the images to search for the hidden stars and numbers. Use your mouse to navigate through the scenes, keeping an eye on the timer. Remember, avoid clicking randomly to prevent losing precious time. Good luck and enjoy the hunt!</p>","instructions":"Use your mouse to play the game or tap on the screen","gameUrl":null,"imageUrl":null,"videoUrl":"https://cdn.jsdelivr.net/gh/xazalea/retrograde-vid@main/zgvcbtgvl4h9u532ybfd97y3a0zxn2i3.mp4"},{"id":14840,"name":"Pushed Balls","slug":"pushed-balls","category":5,"categoryName":"Puzzle Games","tags":[429,177,34,58,60],"tagNames":["Dragon Ball Z","Coloring","Kids","Matching","puzzleblock"],"width":720,"height":1280,"mobile":false,"plays":0,"rating":"0","description":"<p>Welcome to the vibrant world of Pushed Balls, a thrilling puzzle game that will test your reflexes and color coordination skills. In this engaging game, players will encounter two balls of distinct colors situated at the top of the screen. Mirroring this setup, the lower part of the screen features two more balls of the same hues. Between these pairs of balls is a dynamic middle ball that moves vertically, creating a unique gameplay experience where color recognition is key.</p>\\n\\n<p>Your primary objective is to control the balls at both the top and bottom sections of the screen while ensuring that they only interact with the similarly colored balls. However, the challenge escalates as the middle ball changes color, prompting you to rotate the horizontal balls in a timely manner to maintain successful matches. As you progress, the game increases in tempo, intensifying the challenge and requiring quick thinking and nimble fingers to keep up!</p>\\n\\n<p>With its simple yet captivating mechanics, Pushed Balls invites players of all ages to engage in a colorful frenzy of fun. The gameplay is designed not only to entertain but also to sharpen your cognitive skills as you strategize and react swiftly to rapidly changing circumstances. Are you ready to take on the color challenge and see how far you can go?</p>\\n\\n<h3>How to play free Pushed Balls game online</h3>\\n<p>To play Pushed Balls, use your arrows or designated keys to control the balls at the top and bottom of the screen. Keep an eye on the changing color of the middle ball and rotate your horizontal balls to match it. Stay quick, as the speed will increase with each level!</p>","instructions":"Tap on screen to play this game","gameUrl":null,"imageUrl":null,"videoUrl":"https://cdn.jsdelivr.net/gh/xazalea/retrograde-vid@main/tdavgkdo04n7dkkpnki68p24ycwjj4yd.mp4"},{"id":14841,"name":"Words Geems","slug":"words-geems","category":5,"categoryName":"Puzzle Games","tags":[290,4,256,83,83,60,210],"tagNames":["blocky","Family","Letters","Logical","Logical","puzzleblock","Sword"],"width":1024,"height":600,"mobile":false,"plays":0,"rating":"0","description":"<p>Welcome to the vibrant world of <strong>Words Geems</strong>, the ultimate word puzzle game that challenges players to create as many valid words as possible using 3 to 8 letters, all within a nail-biting three-minute countdown! The dynamic gameplay revolves around utilizing colorful gems, which add an exciting twist to your word-building prowess. Each gem has unique scoring multipliers: Pink gems double your score, Blue gems triple it, and Purple gems quintuple your score. With such rewarding mechanics, you ll be racing against the clock to maximize your score and outshine your competitors.</p>\\n\\n<p>Words Geems is designed for family fun, making it a fantastic choice for game nights or casual playtime. The game guarantees a fresh experience every time, with a different puzzle layout on each attempt, ensuring that no two games are the same. Dive into a visually appealing adventure with its delightful graphics that enhance the overall gaming experience. Compete with family and friends on the local scoreboard to see who truly reigns as the word master!</p>\\n\\n<p>This awesome puzzle logic game is not only entertaining but also educational, helping players expand their vocabulary while sharpening their thinking and problem-solving skills. With simple rules and a captivating objective, Words Geems promises hours of laughter and engagement for everyone.</p>\\n\\n<h3>How to play free Words Geems game online</h3>\\n<p>To play Words Geems, simply start the game and quickly glance at the available letters. Your task is to form as many words as you can by combining these letters before time runs out. Make use of the colored gems to boost your score and remember, excessive pauses will reset your progress!</p>","instructions":"Use your mouse to play","gameUrl":null,"imageUrl":null,"videoUrl":"https://cdn.jsdelivr.net/gh/xazalea/retrograde-vid@main/pvgp5noxuh7xmbqhdhvkdni9mh5ipxsj.mp4"},{"id":14845,"name":"Emoji Color Sort Puzzle","slug":"emoji-color-sort-puzzle","category":5,"categoryName":"Puzzle Games","tags":[194,104,41,34,60],"tagNames":["Fall Boys","Brain","Hypercasual","Kids","puzzleblock"],"width":750,"height":1334,"mobile":false,"plays":0,"rating":"0","description":"<p>Welcome to the challenging world of <strong>Emoji Color Sort Puzzle</strong>! This engaging game takes sorting puzzles to the next level with its vibrant 3D emojis and colorful tubes. Your mission is to strategically organize all the same emojis into designated tubes throughout various levels. Whether you are a novice or an expert, this game provides an exhilarating experience that will keep you on your toes.</p>\\n\\n<p>Begin your journey in the <strong>Beginner mode</strong>, where you will learn essential sorting skills and familiarize yourself with the mechanics of the game. As you progress, you will discover three additional difficulty levels: Intermediate, Advanced, and Expert. Each level introduces a wider variety of emojis and reduces the number of available tubes, making it increasingly difficult to organize your emojis effectively. As you advance, you will encounter unique challenges that require strategic thinking and decision-making, especially when determining the best starting point for sorting.</p>\\n\\n<p>The game not only enhances your problem-solving skills but also offers a colorful and delightful aesthetics as you sort through countless emojis. Compete against the clock, race through levels, and enjoy hours of entertainment. Will you rise to the challenge and master Emoji Color Sort Puzzle? Good luck!</p>\\n\\n<h3>How to play free Emoji Color Sort Puzzle game online</h3>  \\n<p>To start playing, simply tap on a tube to select it, then tap on another tube to transfer emojis. Your goal is to move the emojis so that each tube contains only one type. Keep an eye on the tubes and plan your moves wisely to avoid getting stuck!</p>","instructions":"Tap to lift and put down emojis","gameUrl":null,"imageUrl":null,"videoUrl":"https://cdn.jsdelivr.net/gh/xazalea/retrograde-vid@main/6imy2nuzjg8v1zi278bmz16ndnpanphc.mp4"},{"id":14846,"name":"Pokemon Jigsaw","slug":"pokemon-jigsaw","category":5,"categoryName":"Puzzle Games","tags":[26,292,239,194,194,132,41,105,54,31,31,394,191,33,358,60],"tagNames":["Animal","Anime","Baby Hazel","Fall Boys","Fall Boys","Cartoon Network","Hypercasual","Cute","Educational","Girls","Girls","H5","html5 games for your site","Jigsaw","Pokemon","puzzleblock"],"width":480,"height":800,"mobile":false,"plays":0,"rating":"0","description":"<p>Introducing Pokemon Jigsaw, an exciting new jigsaw puzzle game designed for Pokemon fans of all ages! Immerse yourself in the adorable world of Pikachu and his lovable friends as you piece together delightful images that capture their fun-filled adventures. Each puzzle features vibrant artwork that showcases the charm of the Pokemon universe, providing endless entertainment and joy. Whether you're a seasoned puzzle enthusiast or just looking for a cute and engaging way to unwind, Pokemon Jigsaw promises a delightful experience.</p>\\n\\n<p>As you tackle different puzzles, you'll encounter varying levels of difficulty, ensuring there's something for everyone. Players can challenge themselves with intricate designs or opt for simpler ones when seeking a more relaxed experience. The intuitive interface makes it easy to drag and drop pieces into place as you strive to complete each captivating scene. Each puzzle not only enhances your problem-solving skills but also allows you to enjoy stunning visuals of Pikachu alongside his beloved companions like Charmander, Squirtle, and Bulbasaur.</p>\\n\\n<p>Whether you choose to play alone or compete with friends, Pokemon Jigsaw will bring hours of joy and excitement. Everyone can revel in the nostalgia of these cherished characters while honing their puzzle-solving abilities. So why wait? Dive into this enchanting jigsaw puzzle adventure and let the magic of Pokemon brighten your day!</p>\\n\\n<h3>How to play free Pokemon Jigsaw game online</h3>\\n\\n<p>To play the Pokemon Jigsaw game, simply select a puzzle from the available options. Once the puzzle is loaded, drag and drop the pieces onto the workspace to begin arranging them. You can rotate pieces to fit them together. Complete the puzzle to reveal the vibrant image of Pikachu and his friends!</p>","instructions":"Tap or click","gameUrl":null,"imageUrl":null,"videoUrl":"https://cdn.jsdelivr.net/gh/xazalea/retrograde-vid@main/g0tinffsqvh2csu943ccpwszecbodqvq.mp4"},{"id":14854,"name":"Tiny Ball","slug":"tiny-ball","category":5,"categoryName":"Puzzle Games","tags":[429,199,424,309,194,4,31,34,44,60,200,63],"tagNames":["Dragon Ball Z","Ballon","Baseball","Basketball","Fall Boys","Family","Girls","Kids","Physics","puzzleblock","First Person Shooter","Shooting"],"width":1280,"height":800,"mobile":false,"plays":0,"rating":"0","description":"<p>Tiny Ball is an incredibly addictive shooting game that will test your precision and strategic thinking. Players must aim and fire tiny balls to hit a star located at various distances and angles across the playing field. The challenge lies not only in reaching the star but also in doing so with the least number of shots possible. This unique twist adds a layer of strategy, as every shot counts towards your overall star rating, making it essential to gauge your power and angle accurately before firing.</p>\\n\\n<p>As you progress through the levels, the complexity increases, requiring sharper aim and more thoughtful planning. The visually appealing graphics and smooth gameplay enhance the overall experience, keeping you engaged for hours on end. Each successful hit rewards you with points and unlocks new levels, urging you to improve your skills and aim for higher ratings. Tiny Ball's combination of simplicity and complexity makes it a must-try for anyone who enjoys challenging shooting games.</p>\\n\\n<p>With a variety of levels waiting to be explored, Tiny Ball invites you to indulge in some lighthearted competitive fun. Challenge yourself and your friends to see who can achieve the highest star rating, and share your accomplishments on social media to showcase your sharp shooting skills. Are you ready to take on the challenge and become the ultimate Tiny Ball champion?</p>\\n\\n<h3>How to play free Tiny Ball game online</h3>\\n\\n<p>To play Tiny Ball, simply aim at the star using your pointer, adjusting the angle and power by dragging your finger or mouse. Once you feel ready, release to shoot. Try to hit the star in as few shots as possible to earn a better rating. Good luck!</p>","instructions":"Use your mouse to play","gameUrl":null,"imageUrl":null,"videoUrl":"https://cdn.jsdelivr.net/gh/xazalea/retrograde-vid@main/bho8ivz00tt9b1yp2sl9hzgpm08ow2j6.mp4"},{"id":14855,"name":"StickMan Parkour 2","slug":"stickman-parkour-2","category":5,"categoryName":"Puzzle Games","tags":[419,13,326,41,42,42,66,66,140],"tagNames":["Batman","Best Games","Hot","Hypercasual","Jumping","Jumping","running","running","Stickman"],"width":800,"height":600,"mobile":false,"plays":0,"rating":"0","description":"<p>Welcome to StickMan Parkour 2, a thrilling installment in the Stickman Parkour series that promises exhilarating action and engaging gameplay! In this iteration, you will embark on an exciting journey where your primary objective is to navigate a series of challenging levels. You'll need to run, jump, and soar your way towards the door at the end of each stage to unlock the next thrilling level.</p>\\n\\n<p>Prepare yourself for dynamic parkour action as you master the art of movement. Be vigilant, as dangerous obstacles and precarious edges await to hinder your progression. The game requires not only agility but also precise timing and strategic thinking. Every jump counts, and one misstep could lead to a tumble or a fall! As you dive deeper into the adventure, you'll encounter increasingly complex challenges that test your skills and resolve. It's a race against time and space as you strive to complete each level and earn your place in the Stickman Parkour hall of fame!</p>\\n\\n<p>Let the adventure begin as you immerse yourself in the vibrant world of StickMan Parkour 2, where hours of fun and excitement await every player. Ready to take on the challenge? Jump in and show everyone your parkour prowess!</p>\\n\\n<h3>How to play free StickMan Parkour 2 game online</h3>\\n\\n<p>To play StickMan Parkour 2, use the arrow keys or the on-screen controls to move your character. Press the jump button to leap across platforms and avoid obstacles. Aim to land safely on edges, and guide your Stickman swiftly to the door at the level's end to progress. Good luck!</p>","instructions":"A and D to move left and right use W to jump and climb use S and D or A to scroll you can also use arrows","gameUrl":null,"imageUrl":null,"videoUrl":"https://cdn.jsdelivr.net/gh/xazalea/retrograde-vid@main/ybbprvnzp8v7kixeiid7aum3fbxdty96.mp4"}]}