{"page":564,"total":28153,"pages":564,"games":[{"id":28152,"name":"Cat Suika","slug":"cat-suika","category":4,"categoryName":"Arcade Games","tags":[16,18,26,485,105,191,58,35,60,295],"tagNames":["1 Player","2D","Animal","catcher","Cute","html5 games for your site","Matching","Mobile","puzzleblock","watermelon"],"width":1280,"height":720,"mobile":false,"plays":0,"rating":"0","description":"Cat Suika is a relaxing and adorable merge puzzle game with a feline twist! Drop fluffy cats from the top and try to match two of the same breed to merge them into a new one. Each merge unlocks a new cat breed, from Persian and Siamese to Tuxedo and Calico. Inspired by the Suika game style, this version is all about cats &amp;amp;mdash; no fruits here! With soft colors, cozy sound effects, and charming animations, Cat Suika is perfect for players who enjoy casual puzzle games with a cute theme. Your goal is to unlock every single cat breed and chase the highest score! But beware &amp;amp;mdash; once the board is full, it&amp;amp;rsquo;s game over.","instructions":"Use your mouse or touch screen to drop a cat onto the board When two cats of the same breed touch they merge into a new higher-level breed Keep merging cats to unlock all 11 adorable types Pay attention to where each cat lands as good placement is key","gameUrl":"https://cdn.jsdelivr.net/gh/xazalea/retrograde@main/game/vyyh0e28gi85jp4rk3umxdyugsuu9p84.html","imageUrl":null,"videoUrl":null},{"id":28153,"name":"Block Merge City","slug":"block-merge-city","category":4,"categoryName":"Arcade Games","tags":[251,188,56,60],"tagNames":["building","city","Match 3","puzzleblock"],"width":1280,"height":720,"mobile":false,"plays":0,"rating":"0","description":"Block Merge City is a relaxing isometric puzzle game where you place and combine buildings to evolve them into bigger structures. Strategically plan your moves, score high, and avoid running out of space!","instructions":"Click on an empty cell on the board to place the next block from the queue Match 3 or more identical blocks to merge them into a higher-level building Earn points and use hammers to remove unwanted blocks The game ends when no more placements are possi","gameUrl":"https://cdn.jsdelivr.net/gh/xazalea/retrograde@main/game/ikv6tvl28r0jhq0r003pcv0lhh6ckpr1.html","imageUrl":null,"videoUrl":null},{"id":28154,"name":"Egg Shooter 2","slug":"egg-shooter-2","category":4,"categoryName":"Arcade Games","tags":[21],"tagNames":["Bubble Shooter"],"width":800,"height":600,"mobile":false,"plays":0,"rating":"0","description":"Egg Shooter is a fast-paced bubble shooter game with a fun eggy twist! Aim, shoot, and match three or more colorful eggs to crack them and clear the board. Use power-ups and combos to blast through tricky levels. With endless waves and increasing difficulty, only the sharpest shooters will survive! Easy to play, hard to master&amp;amp;mdash;perfect for quick sessions or long play. Can you become the ultimate egg blaster? Let&amp;amp;rsquo;s find out!","instructions":"Mouse click or tap to play","gameUrl":"https://cdn.jsdelivr.net/gh/xazalea/retrograde@main/game/9xlrmz5bnipd2hvqkktdjbohpw31byma.html","imageUrl":null,"videoUrl":null}]}