{"page":7,"total":318,"pages":7,"games":[{"id":27837,"name":"The Wizard Green Skibidis Fury","slug":"the-wizard-green-skibidis-fury","category":13,"categoryName":"Adventure Games","tags":[25,6,20,50,191,35,370,268],"tagNames":["Action","Adventure","Android","Escape","html5 games for your site","Mobile","Skibidi Toilet","Wizard"],"width":1280,"height":720,"mobile":false,"plays":0,"rating":"0","description":"The green wizard in a parallel universe now escapes from the Skibidi toilet! Quickly! Find the exit! Le sorcier vert dun univers parall&amp;amp;egrave;le s&amp;amp;eacute;chappe des toilettes de Skibidi ! Vite ! Trouvez la sortie ! Il mago verde in un universo parallelo &amp;amp;egrave; scappato dal bagno degli Skibidi! Presto! Trovate luscita!","instructions":"Use AWSD or touch for move","gameUrl":"https://cdn.jsdelivr.net/gh/xazalea/retrograde@main/game/x3a7or9an0bw8lg3lt81jhwc3lcp7463.html","imageUrl":null,"videoUrl":null},{"id":27838,"name":"Labubu World Game","slug":"labubu-world-game","category":13,"categoryName":"Adventure Games","tags":[16,18,496],"tagNames":["1 Player","2D","Labubu"],"width":800,"height":600,"mobile":false,"plays":0,"rating":"0","description":"Labubu World is a fun and quirky adventure game that brings the mischievous character Labubu to life in a colorful, whimsical world. Players step into a universe full of surprises, where every stage is packed with unique challenges, hidden treasures, and playful creatures. In this game, you guide Labubu through vibrant levels, jumping across platforms, solving puzzles, and avoiding tricky obstacles. Each world has its own theme and personality&amp;amp;mdash;whether it&amp;amp;rsquo;s enchanted forests, mysterious caves, or candy-colored skies. Collect items along the way to unlock new abilities and customize your Labubu with fun outfits.","instructions":"mouse only","gameUrl":"https://cdn.jsdelivr.net/gh/xazalea/retrograde@main/game/iri6qbxw5iyl4teu4u6tqwh9lgtmeiju.html","imageUrl":null,"videoUrl":null},{"id":27860,"name":"Snake Game 2025","slug":"snake-game-2025","category":13,"categoryName":"Adventure Games","tags":[13,47,155],"tagNames":["Best Games","Bomb","Snake"],"width":800,"height":600,"mobile":false,"plays":0,"rating":"0","description":"Classic Snake Game &amp;amp;ndash; HTML5 + Responsive + Touch Support Bring back the nostalgia with this modern take on the classic Snake Game, built entirely with HTML5, CSS3, and JavaScript. Lightweight, fast, and fully responsive, this game runs smoothly across all modern browsers and devices.","instructions":"Control the snake using the arrow keys or W A S D keys Eat the food grow longer and avoid crashing into the walls or yourself","gameUrl":"https://cdn.jsdelivr.net/gh/xazalea/retrograde@main/game/i6y64skipzp3fqog4u2qpbqw4o2bhzar.html","imageUrl":null,"videoUrl":null},{"id":27861,"name":"Fishdom","slug":"fishdom","category":13,"categoryName":"Adventure Games","tags":[105,37,37,99,191,174,60,109],"tagNames":["Cute","Fishing","Fishing","Funny","html5 games for your site","kiz10","puzzleblock","Rescue"],"width":480,"height":800,"mobile":false,"plays":0,"rating":"0","description":"Dive into the fantastic world of Fishdom! Youre in for an ocean of exciting levels, scores of adorable fish and pets, and a sea of captivating events! Explore incredible underwater adventures! Unlock aquariums and save the fish on every level.","instructions":"Use the mouse or touch to play","gameUrl":"https://cdn.jsdelivr.net/gh/xazalea/retrograde@main/game/55m645alo88yve3z7su5g252gfk9t0p6.html","imageUrl":null,"videoUrl":null},{"id":27877,"name":"Something below the Sea Hard version","slug":"something-below-the-sea-hard-version","category":13,"categoryName":"Adventure Games","tags":[16,6,7,21,191,230,316,200,200],"tagNames":["1 Player","Adventure","Arcade","Bubble Shooter","html5 games for your site","Island","ships","First Person Shooter","First Person Shooter"],"width":800,"height":600,"mobile":false,"plays":0,"rating":"0","description":"A team of scientists spotted an area of the planet with an immense amount of garbage, seeing that this threatened marine life, they decided to create drones to remove this garbage, but something else is hidden...","instructions":"Use ASDW for move or Touch and shoot with P ou Touch the square for shoot","gameUrl":"https://cdn.jsdelivr.net/gh/xazalea/retrograde@main/game/asor6gv8sy44ciqhjuwmp5j2i2fn3ksm.html","imageUrl":null,"videoUrl":null},{"id":27878,"name":"Tralalero Tralala Endless Run","slug":"tralalero-tralala-endless-run","category":13,"categoryName":"Adventure Games","tags":[39,479,487,81,99,41,42,34,35,504],"tagNames":["Avoid","Brainrot Italian","Brainrot sahuuur","Collecting","Funny","Hypercasual","Jumping","Kids","Mobile","Tralalero Tralala"],"width":480,"height":854,"mobile":false,"plays":0,"rating":"0","description":"Tralalero Tralala Endless Run is a colorful and exciting online game that kids will love. The challenge is simple but addictive: stay alive for as long as possible while running endlessly through a quirky world full of surprises. Your goal is to jump on jellyfish to keep moving forward and collect as many delicious burgers as you can along the way. The more burgers you gather, the higher your score will climb. But watch out: crashing into the top or bottom of the screen will quickly end your run. This fast-paced adventure is all about quick reflexes, timing, and endless fun. Perfect for kids who enjoy bright graphics, silly characters, and non-stop action. Best of all, it is completely free to play online, so you can jump right into the excitement anytime. So, get ready to guide Tralalero Tralala through this hilarious endless journey, collect those burgers, and see how long you can survive. Can you set a new record? Give it a try and have fun!","instructions":"Left and right arrow keys or mouse to play","gameUrl":"https://cdn.jsdelivr.net/gh/xazalea/retrograde@main/game/n3us455bf6ehkagzsue2ogjih00ggjzb.html","imageUrl":null,"videoUrl":null},{"id":27963,"name":"Tung Tung Sahur in Geometry Dash","slug":"tung-tung-sahur-in-geometry-dash","category":13,"categoryName":"Adventure Games","tags":[487,384,391,480,482,482],"tagNames":["Brainrot sahuuur","dash","Geometry","Italian Brainrot","Tung Tung Tung Sahur","Tung Tung Tung Sahur"],"width":960,"height":600,"mobile":false,"plays":0,"rating":"0","description":"Join Tung Tung Sahur, the wooden drum-carrying dawn caller, as he bounces and flips through a neon cityscape just before sunrise! Dodge spikes, leap over traps, and time your jumps to the beat of his signature &amp;amp;ldquo;tung-tung!&amp;amp;rdquo; calls. In this Geometry Dash&amp;amp;ndash;inspired challenge, the streets are alive with glowing gates, speed pads, and tricky gravity flips. Can you drum your way to the end without missing a beat?","instructions":"mouse only","gameUrl":"https://cdn.jsdelivr.net/gh/xazalea/retrograde@main/game/xpdem6m773wts2kyi1f3j2wusxe6743o.html","imageUrl":null,"videoUrl":null},{"id":28005,"name":"Alex Whiskers","slug":"alex-whiskers","category":13,"categoryName":"Adventure Games","tags":[16,96,485,99,42,183],"tagNames":["1 Player","3D Games","catcher","Funny","Jumping","Platform"],"width":1280,"height":720,"mobile":false,"plays":0,"rating":"0","description":"Join Alex Whiskers, the adventurous town cat, on a fast-paced hunt for tasty fish! Dash through busy streets, bounce high on springs, dodge speeding cars, and stay clear of the big bad bulldogs who&amp;amp;rsquo;d love to stop you in your tracks. Quick paws and sharp reflexes are your best friends in this fun, action-packed 3D adventure.","instructions":"Controls Move Arrow Keys or WASD Look Around Mouse left right Jump Spacebar Controller Support Fully compatible for movement camera and jumping","gameUrl":"https://cdn.jsdelivr.net/gh/xazalea/retrograde@main/game/m97tod5mmb9hq2m1jhdbjlxvjwisbtqe.html","imageUrl":null,"videoUrl":null},{"id":28006,"name":"Safari Match","slug":"safari-match","category":13,"categoryName":"Adventure Games","tags":[7,56,58,128,60,60],"tagNames":["Arcade","Match 3","Matching","NapTech Games","puzzleblock","puzzleblock"],"width":1280,"height":2560,"mobile":false,"plays":0,"rating":"0","description":"Play Safari Match, a fun and addictive match-3 puzzle game set in the heart of the wild safari! Match colorful animal blocks, solve exciting puzzles, and unlock powerful boosters to win. Easy to play yet challenging to master, with hundreds of fun levels and stunning graphics. Perfect for kids and adults who love brain games, block puzzles, and animal-themed adventures. Play anywhere&amp;amp;mdash;mobile, tablet, or desktop&amp;amp;mdash;and become the ultimate match-3 champion!","instructions":"Desktop Mouse Click Select amp Match Blocks Mobile Tap Select amp Match Blocks","gameUrl":"https://cdn.jsdelivr.net/gh/xazalea/retrograde@main/game/047gqvec2g1nektwuly9xns02mefpknw.html","imageUrl":null,"videoUrl":null},{"id":28011,"name":"Jungle Fury Mutant Rhino Mayhem","slug":"jungle-fury-mutant-rhino-mayhem","category":13,"categoryName":"Adventure Games","tags":[16,25,6,190,183,95],"tagNames":["1 Player","Action","Adventure","monstertruck","Platform","Superhero"],"width":1920,"height":1080,"mobile":false,"plays":0,"rating":"0","description":"Enter a jungle plagued by mutant rhino warriors! As a brave tribal hero, rescue captured villagers, battle fierce enemies, and defeat powerful rhino bosses. Use bows, axes, and legendary weapons from the Blacksmith Shop to fight through deadly swamps, chaotic caverns, and fortified ramparts. Can you stop the Apex Mutant Rhino Warlord and restore peace to the land? Key Features: 20 intense levels with thrilling boss fights Unique enemies, from Rhino Brutes to Vampire Bats Powerful weapons like the Thunder Hammer &amp;amp;amp; Lightning Sword Blacksmith Shop for upgrades and new gear Health herbs &amp;amp;amp; gold mushrooms to aid your quest Epic medieval setting","instructions":"Move attack and jump to defeat enemies Rescue villagers to complete levels Upgrade weapons wisely","gameUrl":"https://cdn.jsdelivr.net/gh/xazalea/retrograde@main/game/6xmc3rr9d1g36oxh8zgmuwmmpp2qrt4f.html","imageUrl":null,"videoUrl":null},{"id":28013,"name":"School Stories: Teacher Sim","slug":"school-stories-teacher-sim","category":13,"categoryName":"Adventure Games","tags":[6,471,144],"tagNames":["Adventure","unblockedgamesatschool","Simulation"],"width":800,"height":600,"mobile":false,"plays":0,"rating":"0","description":"Dive into School Stories: Teacher Sim, an addictive high school game where you become a teacher managing students and school life. Customize your teacher avatar, grade papers, and maintain discipline by catching clever cheaters using hidden phones or notes. Explore vibrant school areas like art rooms, basketball courts, and swimming pools while engaging in mini games that capture the full school experience. Perfect for fans of teacher and school simulators, this game challenges your management skills as you pass levels and unlock new activities. Whether youre enforcing rules or taking part in school life adventures, School Stories: Teacher","instructions":"Mouse click or tap to play","gameUrl":"https://cdn.jsdelivr.net/gh/xazalea/retrograde@main/game/xnf3bxeet7w4y8rdmifw7hugjnyzt0ds.html","imageUrl":null,"videoUrl":null},{"id":28050,"name":"Tung Tung Tung Tung Sahur","slug":"tung-tung-tung-tung-sahur","category":13,"categoryName":"Adventure Games","tags":[96,96,25,495,398,459,234,42,482,482],"tagNames":["3D Games","3D Games","Action","2026 games","Ghost","Granny","Horror","Jumping","Tung Tung Tung Sahur","Tung Tung Tung Sahur"],"width":800,"height":600,"mobile":false,"plays":0,"rating":"0","description":"Enter a dark, eerie forest haunted by the mysterious Tung Sahur. Your goal is to collect all the lost souls scattered across the woods to escape&amp;amp;hellip; but beware! Tung Sahur appears suddenly to hunt you down. The only way to survive is to hide inside the wooden huts until its safe. Can you gather all the souls before he catches you?","instructions":"On PC Move WASD or Arrow Keys Look Around Move the mouse Run Hold Shift while moving Interact Press E to pick up items Press ESC to unlock the cursor On Mobile Move Use the Joystick Look Around Drag your finger on the screen Run Tap and hold th","gameUrl":"https://cdn.jsdelivr.net/gh/xazalea/retrograde@main/game/iivhncl1ihn5xpk7h1xnqwovwkutrgxl.html","imageUrl":null,"videoUrl":null},{"id":28071,"name":"AgeOfBattle","slug":"ageofbattle","category":13,"categoryName":"Adventure Games","tags":[16,25,283,13,41],"tagNames":["1 Player","Action","battleship","Best Games","Hypercasual"],"width":350,"height":600,"mobile":false,"plays":0,"rating":"0","description":"Send troops to break through the enemys castle. Killing soldiers can earn you gold coins, and gold coins can unlock higher-level soldiers. The higher the soldiers rank is, the more powerful he is. Come and have a try.","instructions":"Mouse click or tap to play","gameUrl":"https://cdn.jsdelivr.net/gh/xazalea/retrograde@main/game/7672k6il1my9fyegitb3zo1h1vr0aeg4.html","imageUrl":null,"videoUrl":null},{"id":28072,"name":"Tarcat","slug":"tarcat","category":13,"categoryName":"Adventure Games","tags":[41,485,99,99,41],"tagNames":["Hypercasual","catcher","Funny","Funny","Hypercasual"],"width":854,"height":480,"mobile":false,"plays":0,"rating":"0","description":"Paw Smash - Cat power in a single tap! Enter the world of feline destruction with Tarcat, a hilarious casual game where you control a cats paw! Your goal? Smash all targets with quick reflexes and pinpoint accuracy! With just one tap, hit targets, avoid traps, and dominate each level with the style of a true feline destroyer.","instructions":"TOUCH THE SCREEN MOUSE","gameUrl":"https://cdn.jsdelivr.net/gh/xazalea/retrograde@main/game/ap5q4zpk7u6jxh8yyofvmczo413jlfcd.html","imageUrl":null,"videoUrl":null},{"id":28073,"name":"One Level Stickman Jailbreak","slug":"one-level-stickman-jailbreak","category":13,"categoryName":"Adventure Games","tags":[16,6,50,277,191,42,174,297,147,183,307,66],"tagNames":["1 Player","Adventure","Escape","html games for your website","html5 games for your site","Jumping","kiz10","Levels","Maze","Platform","Prison","running"],"width":800,"height":480,"mobile":false,"plays":0,"rating":"0","description":"Tommy got into trouble! Our hero is behind bars. But he&amp;amp;rsquo;s not going to stay in jail for a long time and he decides to escape. Tommy steals a key and gets out of the jail cell. In order to go free Tommy will have to solve logical puzzles and you can help him in this!","instructions":"Use the keyboard or mobile buttons to play","gameUrl":"https://cdn.jsdelivr.net/gh/xazalea/retrograde@main/game/ydmtrmpnnggfcblhk9blfhqkld9a6hga.html","imageUrl":null,"videoUrl":null},{"id":28099,"name":"Meteor Escape","slug":"meteor-escape","category":13,"categoryName":"Adventure Games","tags":[16,18,25],"tagNames":["1 Player","2D","Action"],"width":960,"height":600,"mobile":false,"plays":0,"rating":"0","description":"Meteors are raining from the sky, and so is money! Can you dodge destruction and get rich at the same time? Move fast, survive longer, and collect those coins like your life depends on it &amp;amp;mdash; because it does!","instructions":"PC Move Left ndash A or larr Move Right ndash D or rarr Mobile Tap the left or right buttons on the screen to move","gameUrl":"https://cdn.jsdelivr.net/gh/xazalea/retrograde@main/game/zmkyms3zzbg4t12h36f1qn57bkkpirfm.html","imageUrl":null,"videoUrl":null},{"id":28111,"name":"ShapeHavoc3D","slug":"shapehavoc3d","category":13,"categoryName":"Adventure Games","tags":[6,7,13,495,41],"tagNames":["Adventure","Arcade","Best Games","2026 games","Hypercasual"],"width":350,"height":600,"mobile":false,"plays":0,"rating":"0","description":"Move the tablet forward. Randomly shaped obstacles will appear ahead. Before the tablet reaches the obstacle, click on the tablet to transform it into the shape of the obstacle. It greatly tests your hand speed and is extremely thrilling. Come and give it a try.","instructions":"Mouse click or tap to play","gameUrl":"https://cdn.jsdelivr.net/gh/xazalea/retrograde@main/game/rwgone04vfprtymtwcjtfir1heto510d.html","imageUrl":null,"videoUrl":null},{"id":28149,"name":"Marble Spiral","slug":"marble-spiral","category":13,"categoryName":"Adventure Games","tags":[16,6],"tagNames":["1 Player","Adventure"],"width":800,"height":600,"mobile":false,"plays":0,"rating":"0","description":"Target the same color ball and smash the same color ball. Your goal is to match 3 or more marbles of the same color to destroy them and earn points. Prevent the marbles from reaching the end or youll lose a life.","instructions":"Mouse click or tap to play","gameUrl":"https://cdn.jsdelivr.net/gh/xazalea/retrograde@main/game/91bpo9c0m4i3jhc89iaes8sbr2wdf7h8.html","imageUrl":null,"videoUrl":null}]}