{"page":42,"total":2076,"pages":42,"games":[{"id":27136,"name":"TunTun Sahur: Super Runner Game","slug":"tuntun-sahur-super-runner-game","category":1,"categoryName":"Action Games","tags":[16,96,96,487,479,487,480,458,66],"tagNames":["1 Player","3D Games","3D Games","Brainrot sahuuur","Brainrot Italian","Brainrot sahuuur","Italian Brainrot","Sprunki","running"],"width":1920,"height":1080,"mobile":false,"plays":0,"rating":"0","description":"TunTun Sahur: Super Runner Game &amp;amp;ndash; Ready to have fun running with TunTun Sahur? In this hyper-casual runner, race down an endless highway &amp;amp;zwj; with a single goal: reach the finish line alive! Endless Random Challenges Police &amp;amp;zwj; and cash appear completely at random every run. No two levels are ever the same&amp;amp;mdash;every step brings a new surprise! Powerful Upgrades Collect coins to enhance three core upgrades: Coin Earnings, Starting Health Points, and the +Health Multiplier Gate. Become stronger and faster with every run!","instructions":"Survive to Reach the Finish Line If your health drops below 1 0 it rsquo s game over Dodge enemy attacks or take them out by colliding when necessary and make it to the finish line in one piece","gameUrl":"https://cdn.jsdelivr.net/gh/xazalea/retrograde@main/game/ru184msxoyuxepcbwbgl62wo0un74jqd.html","imageUrl":null,"videoUrl":null},{"id":27145,"name":"Runner Tomato: Hyper Casual","slug":"runner-tomato-hyper-casual","category":1,"categoryName":"Action Games","tags":[16,96,96,25,6,458,66],"tagNames":["1 Player","3D Games","3D Games","Action","Adventure","Sprunki","running"],"width":1920,"height":1080,"mobile":false,"plays":0,"rating":"0","description":"Runner Tomato: Hyper Casual &amp;amp;ndash; Are you ready to have fun running with a tomato? In this hyper-casual runner game, dash along an endless highway with a single goal &amp;amp;zwj;: reach the finish line alive! Endless Random Challenges Knives and cash appear completely at random in every run. No two levels are ever the same &amp;amp;mdash; every step brings a brand-new surprise!","instructions":"Runner Tomato Hyper Casual ndash The Ultimate Running Game Sprint on a single straight track zwj At every level knives and coins appear completely at random mdash no memorization needed every run is a brand-new challenge Survive to Reach the F","gameUrl":"https://cdn.jsdelivr.net/gh/xazalea/retrograde@main/game/w1anzed55xbbm11n1fdkrc8j1rb9qp4n.html","imageUrl":null,"videoUrl":null},{"id":27160,"name":"Escape from Dictatorship: Runner Game","slug":"escape-from-dictatorship-runner-game","category":1,"categoryName":"Action Games","tags":[16,96,96,25,50,458,66],"tagNames":["1 Player","3D Games","3D Games","Action","Escape","Sprunki","running"],"width":1920,"height":1080,"mobile":false,"plays":0,"rating":"0","description":"Escape from Dictatorship: Runner Game: Are you ready for a life-or-death sprint to freedom? In this hyper-casual runner, you&amp;amp;rsquo;ll race down an endless crimson highway &amp;amp;zwj; with just one goal&amp;amp;mdash;reach the finish line alive! Endless Random Challenges: Soldiers and red coins appear in completely random patterns every round. No two levels are ever the same&amp;amp;mdash;each step brings a fresh surprise! Powerful Upgrades: Collect red coins to boost three core upgrades&amp;amp;mdash;Red Coin Earnings, Starting Health Points, and the +Health Multiplier Gate&amp;amp;mdash;so every run gets stronger and faster!","instructions":"Linear Path to Freedom Sprint along a single straight route zwj But in every level the soldiers and coins on the road spawn completely at random mdash no memorization every run is a brand-new challenge Reach the Finish Alive If your health drops","gameUrl":"https://cdn.jsdelivr.net/gh/xazalea/retrograde@main/game/nbh1x1rbv0baw88ta8gxc3m7q4azmpjt.html","imageUrl":null,"videoUrl":null},{"id":27162,"name":"Annoying Uncle   Punch the Meme","slug":"annoying-uncle-punch-the-meme","category":1,"categoryName":"Action Games","tags":[41,483,425],"tagNames":["Hypercasual","crazygamesunblocked","Punch"],"width":1080,"height":1920,"mobile":false,"plays":0,"rating":"0","description":"Annoying Uncle Punch The Meme Game Get ready for a fun and chaotic meme-style experience! Annoying uncles pop up from different sides, and your job is to punch them before they irritate you with their silly expressions. React fast, score high, and enjoy the simple, funny, and addictive gameplay. The game includes a settings option to manage sound, a level selection screen, and a score display to track your best punches.","instructions":"Mouse click or tap to play","gameUrl":"https://cdn.jsdelivr.net/gh/xazalea/retrograde@main/game/dmbzuklinvm2zf8p1cumrsoujm6iir9p.html","imageUrl":null,"videoUrl":null},{"id":27163,"name":"double klondike solitaire Card","slug":"double-klondike-solitaire-card","category":1,"categoryName":"Action Games","tags":[2,308,315,60,380,349],"tagNames":["Card","Casino","Poker","puzzleblock","Slot Machine","Solitaire"],"width":800,"height":600,"mobile":false,"plays":0,"rating":"0","description":"Ready for the ultimate solitaire test? Try Double Klondike Solitaire! This exciting and strategic twist on the classic game uses TWO decks, doubling the fun and the challenge. Can you clear all the cards and build up the foundations? Perfect for seasoned solitaire players looking for their next obsession!","instructions":"Mouse click or tap to play","gameUrl":"https://cdn.jsdelivr.net/gh/xazalea/retrograde@main/game/kbac8c4u2b42ezncjx0049awdderpzxm.html","imageUrl":null,"videoUrl":null},{"id":27173,"name":"Escape from Hell: Crazy Runner Game","slug":"escape-from-hell-crazy-runner-game","category":1,"categoryName":"Action Games","tags":[16,96,66],"tagNames":["1 Player","3D Games","running"],"width":1920,"height":1080,"mobile":false,"plays":0,"rating":"0","description":"Ready for a deadly sprint through the flames of hell? In this hyper-casual runner, you race down a scorching straight path &amp;amp;zwj; with just one goal: reach the finish line alive! On every level, the devils and shimmering coins on the track appear completely at random. No two runs are ever the same&amp;amp;mdash;every step brings a new surprise! Collect coins to upgrade three powerful boosts&amp;amp;mdash;Fire Coin Earnings, Starting Health Points, and + Health Multiplier Gate&amp;amp;mdash;and push your run even further! Unlock a total of 18 mysterious achievements : 9 earned by slaying devils and 9 by collecting huge point totals .","instructions":"Straight Hell Run Dash along a single blazing road zwj where devils and coins spawn randomly each level No memorizing mdash every attempt is a fresh challenge Survive to the Finish If your health drops below 1 0 it rsquo s game over Dodge devil","gameUrl":"https://cdn.jsdelivr.net/gh/xazalea/retrograde@main/game/e91ouncy54s94hw42d6142hsf4iti5vg.html","imageUrl":null,"videoUrl":null},{"id":27204,"name":"Oil Tanker Truck Parking Game","slug":"oil-tanker-truck-parking-game","category":1,"categoryName":"Action Games","tags":[492,491,190,223,332,190],"tagNames":["2025 games","cargo","monstertruck","carparking","Tanks","monstertruck"],"width":800,"height":600,"mobile":false,"plays":0,"rating":"0","description":"Do you like heavy duty oil cargo truck driving simulator games 2021? Then Oil Tanker Transporter Truck Simulator gives you a realistic truck driving experience. Driving big oil tanker and cargo trailer is not a simple task as you have to know all the driving school rules to drive big offroad trucks.","instructions":"W Arrow Up rarr Move Front S Arrow Down rarr Move Back A Arrow Left rarr Move Left D Arrow Right rarr Move Right - To click any button use mouse","gameUrl":"https://cdn.jsdelivr.net/gh/xazalea/retrograde@main/game/40i95l7qrakoextsh18h4bi0s3uq3vcy.html","imageUrl":null,"videoUrl":null},{"id":27214,"name":"Drift X Driving Car Game","slug":"drift-x-driving-car-game","category":1,"categoryName":"Action Games","tags":[25,491,273,9,223,76,77],"tagNames":["Action","cargo","drifting","Driving","carparking","Race","Racing"],"width":800,"height":600,"mobile":false,"plays":0,"rating":"0","description":"Welcome to the world of car drift and driving games. Get ready to ignite your engines, push the pedal to the metal, and drift like a pro in the most thrilling car drift and driving game ever. This is not just a driving simulator game, its an adrenaline-pumping, tire-squealing, smoke-flying experience that takes your car control skills to the next level. Whether you are into precision driving, freestyle drifting, or open world cruising, this game has something for every car enthusiast.","instructions":"W Arrow Up rarr Move Front S Arrow Down rarr Move Back A Arrow Left rarr Move Left D Arrow Right rarr Move Right - To click any button use mouse","gameUrl":"https://cdn.jsdelivr.net/gh/xazalea/retrograde@main/game/1mf5gvj912ik2r7i0nkbfobb4ow3ax1t.html","imageUrl":null,"videoUrl":null},{"id":27215,"name":"Ants io","slug":"ants-io","category":1,"categoryName":"Action Games","tags":[462,217,96,25,203,283,126,119],"tagNames":["construction",".io Games","3D Games","Action","Arena","battleship","Skills","survival"],"width":1600,"height":720,"mobile":false,"plays":0,"rating":"0","description":"Ants io is a fast-paced .io-style arena game where you control a battle-hardened ant fighting for the top spot in the jungle. Move around the map, hunt enemies, and use your unique special ability to outplay other ants. Each ant type comes with its own special skill and playstyle, and you can unlock many more in the in-game shop. Choose from four different game modes to test your skills, and pick from three random skills during the run to build powerful combos. Survive, grow stronger, and be the last ant standing to claim first place on the leaderboard.","instructions":"Mouse click or tap to play","gameUrl":"https://cdn.jsdelivr.net/gh/xazalea/retrograde@main/game/padkimfk900lo640e7v8dm70zuqacvpv.html","imageUrl":null,"videoUrl":null},{"id":27223,"name":"Mr. Dude: King of the Hill","slug":"mr-dude-king-of-the-hill","category":1,"categoryName":"Action Games","tags":[96,96,25,36,20,7,13,99,99,495,74,44,371,10],"tagNames":["3D Games","3D Games","Action","amazing","Android","Arcade","Best Games","Funny","Funny","2026 games","iPhone","Physics","unity games for your site","Unity3D"],"width":1920,"height":1080,"mobile":false,"plays":0,"rating":"0","description":"The famous criminal Mister Dude found himself on the top of a mountain, where residents were waiting for him, ready to hand him over to the police. Help him avoid getting caught, defeat all enemies and conquer the mountain! Game Features: Interactive Ragdoll Characters: Your goal is to knock out, drag and throw your opponents using physics and fun ragdoll effects. The game has a huge number of different objects that you can manipulate and throw at your opponents. The variety of options and tactics ensures exciting gameplay. The game has various enemies, levels and modes.","instructions":"Control computer WASD - movement Space - jump F - pick up an item G - eat food E - ledge grab Left mouse button - hit throw shot Right mouse button - aim 1 2 3 - switching items","gameUrl":"https://cdn.jsdelivr.net/gh/xazalea/retrograde@main/game/hp4wgaxp9qnpjbjr6lqx65h56fn9rl8h.html","imageUrl":null,"videoUrl":null},{"id":27241,"name":"Dead Survival: Zombie Shooter","slug":"dead-survival-zombie-shooter","category":1,"categoryName":"Action Games","tags":[25,6,63,119,120],"tagNames":["Action","Adventure","Shooting","survival","Zombie"],"width":800,"height":600,"mobile":false,"plays":0,"rating":"0","description":"Dive into Dead Survival: Zombie Shooter, the ultimate offline zombie shooting game designed for intense action and survival horror fans. Battle through a post-apocalyptic world overrun by the undead. With stunning graphics, powerful weapons, and smart zombie AI, every second is a fight for survival.","instructions":"WASD rarr Move Left Mouse Click rarr Shoot Right Mouse Click rarr Scope Middle Mouse rarr Switch Weapon R rarr Reload Z rarr Lock cursor ESC rarr Unlock cursor","gameUrl":"https://cdn.jsdelivr.net/gh/xazalea/retrograde@main/game/dyxwy4707q834y994kunt3e4ea94e12m.html","imageUrl":null,"videoUrl":null},{"id":27302,"name":"Men Vs Gorillas","slug":"men-vs-gorillas","category":1,"categoryName":"Action Games","tags":[96,25,461,5],"tagNames":["3D Games","Action","firefighters","Strategy"],"width":960,"height":600,"mobile":false,"plays":0,"rating":"0","description":"Men vs Gorilla &amp;amp;ndash; The Ultimate Evolution Battle! Step into the wild showdown of Man vs Gorilla! Upgrade your human&amp;amp;rsquo;s strength, damage, and health to survive the rising fury of the jungle&amp;amp;rsquo;s strongest beast. ? Each level brings a tougher gorilla, smarter attacks, and intense battles but also bigger rewards! Use your earnings to level up your power, evolve your fighter, and dominate every fight!","instructions":"Use the left mouse button to upgrade and deploy humans","gameUrl":"https://cdn.jsdelivr.net/gh/xazalea/retrograde@main/game/g04edxyis63ewbo539y721f4qpa3n1nt.html","imageUrl":null,"videoUrl":null},{"id":27316,"name":"Angry Zombies War Game","slug":"angry-zombies-war-game","category":1,"categoryName":"Action Games","tags":[492,6,53,120],"tagNames":["2025 games","Adventure","Warrior","Zombie"],"width":800,"height":600,"mobile":false,"plays":0,"rating":"0","description":"Angry Zombies You have to eliminate zombies with the skull You throw the skull at the zombie by dragging it back. There are two modes in the game: Easy and Hard mode. Hard mode doesnt have an aim sight Each level in ANGRY ZOMBIES is packed full of destructible objects and crazy zombie enemies. Simply shoot, pull back and start shooting! Use precariously stacked crates and other environmental hazards to take out every zombie on the screen. If things get tough, ANGRY ZOMBIES provides the scariest environment but Nothing scares a zombie more than a destructive stone towards him.","instructions":"- To click any button use mouse","gameUrl":"https://cdn.jsdelivr.net/gh/xazalea/retrograde@main/game/qmiqy19ao70stllycsh79urhk93mk086.html","imageUrl":null,"videoUrl":null},{"id":27317,"name":"Block puzzle legend","slug":"block-puzzle-legend","category":1,"categoryName":"Action Games","tags":[483,49,41,58],"tagNames":["crazygamesunblocked","Classic","Hypercasual","Matching"],"width":1334,"height":750,"mobile":false,"plays":0,"rating":"0","description":"Challenge your brain in Block Puzzle Legend. Enjoy the ultimate classic puzzle game. Slide, match, and blast blocks to clear the board and reach new high scores. This casual game is perfect for quick fun or long strategy sessions. It combines satisfying block-clearing action with a colorful, relaxing interface.","instructions":"Mouse click or tap to play","gameUrl":"https://cdn.jsdelivr.net/gh/xazalea/retrograde@main/game/n383lwm9rj72iqfto0xgve8yp69v0svq.html","imageUrl":null,"videoUrl":null},{"id":27318,"name":"3D Sniper Shooting Game","slug":"3d-sniper-shooting-game","category":1,"categoryName":"Action Games","tags":[492,96,200,200,159,200,63,373],"tagNames":["2025 games","3D Games","First Person Shooter","First Person Shooter","Shoot Em Up","First Person Shooter","Shooting","Sniper"],"width":800,"height":600,"mobile":false,"plays":0,"rating":"0","description":"The best sniper 3d ultimate game 2025. There are gangsters in the town, terrorists, thieves, criminals, and robbers who destroy the peace of the city. Everyone is terrifying in the city Sniper Game 2025 Offline top gun game. The city looks like a warzone, other side, criminals ran out of prison by breaking the jail your mission is to kill them with your fps shooting strike skills. Hold your new Sniper shooting Gun, sniper Game 2025 Offline with sniper shooting skills and perform your police sniper shooter duty as an fps commando shooter. Having Sniper 3d Game 2025 Offline shooter skills. shot as a sniper assassin!","instructions":"Mouse click or tap to play Mouse Gun Movement Right Button Scope On amp Off Left Button Fire","gameUrl":"https://cdn.jsdelivr.net/gh/xazalea/retrograde@main/game/5aa8se9unw7t2wqnsqey9i6ddgc67jp3.html","imageUrl":null,"videoUrl":null},{"id":27333,"name":"Army Playground 3D","slug":"army-playground-3d","category":1,"categoryName":"Action Games","tags":[96,61,283,218,383,118,169,182,144,332,233,53],"tagNames":["3D Games","Aircraft","battleship","Battlegrounds","cannon","Tower Defense","destroying","military","Simulation","Tanks","vehicle","Warrior"],"width":960,"height":600,"mobile":false,"plays":0,"rating":"0","description":"Test your tactical skills on the battlefield. You have a large arsenal of combat units and equipment at your disposal. Upgrade your units, earn diamonds and buy more and more advanced weapons that will help you win!","instructions":"Select combat units and place them on the battlefield Consider the characteristics of units to win","gameUrl":"https://cdn.jsdelivr.net/gh/xazalea/retrograde@main/game/4hqykjny6c6fa490so5o2sds4zghv7wx.html","imageUrl":null,"videoUrl":null},{"id":27426,"name":"Pusha Pusha","slug":"pusha-pusha","category":1,"categoryName":"Action Games","tags":[16,25,6],"tagNames":["1 Player","Action","Adventure"],"width":800,"height":600,"mobile":false,"plays":0,"rating":"0","description":"Pusha Pusha is a puzzle game where you must push boxes into the target area in order to pass the level. One wrong move can lose the game. Are you ready to push the blocks?","instructions":"Use Keyboard","gameUrl":"https://cdn.jsdelivr.net/gh/xazalea/retrograde@main/game/9x331e2ydjh0nf845jc7tk1ftuapj6xc.html","imageUrl":null,"videoUrl":null},{"id":27443,"name":"Abyssal Echoes","slug":"abyssal-echoes","category":1,"categoryName":"Action Games","tags":[217,24,24,492,17,25,6,292,7,39],"tagNames":[".io Games","2 Player Games","2 Player Games","2025 games","2048","Action","Adventure","Anime","Arcade","Avoid"],"width":1080,"height":1920,"mobile":false,"plays":0,"rating":"0","description":"Excellent choice. &amp;amp;ldquo;Abyssal Echoes&amp;amp;rdquo; is a powerful, poetic, and haunting name perfect for a deep-sea psychological horror game. Below is a complete long-form game description written specifically for Abyssal Echoes, with professional tone and cinematic flow ideal for Steam, PlayStation, or App Store listings Abyssal Echoes Official Game Description The Deep Remembers What Humanity Forgot You are Dr. Elias Ward, a deep-sea researcher descending into the ruins of Station Erebus, an underwater facility lost decades ago in the Mariana Trench. A mission meant for science becomes a nightmare of memory, pressure, and time.","instructions":"Game Controls ndash Abyssal Echoes Mastering the controls is your only chance to survive the descent Every move consumes oxygen every light flicker hides danger mdash precision and timing are key beneath the pressure PC Controls Action Key Descri","gameUrl":"https://cdn.jsdelivr.net/gh/xazalea/retrograde@main/game/p2yoio4lbhdhw0e57040u82k19fyi2pv.html","imageUrl":null,"videoUrl":null},{"id":27478,"name":"Tanks of War Halloween","slug":"tanks-of-war-halloween","category":1,"categoryName":"Action Games","tags":[24,24,18,6,7,167,332,332],"tagNames":["2 Player Games","2 Player Games","2D","Adventure","Arcade","Halloween","Tanks","Tanks"],"width":800,"height":600,"mobile":false,"plays":0,"rating":"0","description":"Are you ready for a tank battle? Team up with your friend and fight together. The fastest player wins the game. Don&amp;amp;rsquo;t forget to get the special Halloween skin for your tank! Join the red or blue team and destroy the enemy tank in front of you. Collect the power-ups scattered around the map &amp;amp;mdash; they&amp;amp;rsquo;ll make your tank invincible or boost your firepower. Be quick and shoot at the right moment to win the battle!","instructions":"Use the WASD and Arrow Keys to move Use the Q and P keys to fire the tank A never-ending tank battle game 4 different maps","gameUrl":"https://cdn.jsdelivr.net/gh/xazalea/retrograde@main/game/1lbhtq5p27z7p6w5xkah2vcrlijm9fec.html","imageUrl":null,"videoUrl":null},{"id":27491,"name":"Two Player Red Hands Game","slug":"two-player-red-hands-game","category":1,"categoryName":"Action Games","tags":[24,24,492,25,115,299,411],"tagNames":["2 Player Games","2 Player Games","2025 games","Action","attack","Street Fighting","Red"],"width":800,"height":600,"mobile":false,"plays":0,"rating":"0","description":"Welcome to the world of two players of the red hands game. Challenge your friends to play two player hand games and check whos the first one to get hot hands! Ready? Gooo!!! Red hands two player game is based on one of the coolest clapping games. It belongs to funny reaction games, but anyone whos competitive can play this funny game. If you like to play two player games, this is a perfect choice for you! Because it is simple and easy to play, red hands two player games belong to fun games for people of all ages. The game tests your reflexes and speed so if you dont pay attention, you will get red hands!","instructions":"- To click any button use mouse","gameUrl":"https://cdn.jsdelivr.net/gh/xazalea/retrograde@main/game/485gqzfrbzass7ig99juwrcb73d0286z.html","imageUrl":null,"videoUrl":null},{"id":27496,"name":"Crowd Runners 3D","slug":"crowd-runners-3d","category":1,"categoryName":"Action Games","tags":[25,80,299,297,66,119],"tagNames":["Action","Clash","Street Fighting","Levels","running","survival"],"width":480,"height":800,"mobile":false,"plays":0,"rating":"0","description":"Choose the best gate, pass through it, and bring stickman warriors together to clash with the opposing crowd. Become the crowd runner and lead your people through the crowded city till the end of this epic race. Crash obstacles and beat everyone on your way, collect coins and upgrade your levels. Defeat the King-stickman in the final battle and take the castle!","instructions":"Use the mouse or touch to control the Stickmans","gameUrl":"https://cdn.jsdelivr.net/gh/xazalea/retrograde@main/game/cb46lvg1na5tbw02mtyngdts930u61f1.html","imageUrl":null,"videoUrl":null},{"id":27736,"name":"Bus Parking Unblocked","slug":"bus-parking-unblocked","category":1,"categoryName":"Action Games","tags":[328,9,75,223,371,11],"tagNames":["Business","Driving","Mentolatux","carparking","unity games for your site","WebGL"],"width":800,"height":600,"mobile":false,"plays":0,"rating":"0","description":"Bus Parking is a clean, skill-based driving challenge where you thread a long city bus through tight turns, cones, and zero-margin bays. Feel the weight, plan your swing, and nail precision stops without scraping paint. Web Dev &amp;lt;a href=&#039;https://www.crazygamesonline.com/.&#039;&amp;gt;https://www.crazygamesonline.com/.&amp;lt;/a&amp;gt; Smooth throttle, crisp camera, and progressive levels keep the loop addictive. Beat timers, earn three stars, and flex pro driver vibes. Mess up? Rewind, learn the line, and park it like a boss. Every time.","instructions":"Mouse click or tap to play","gameUrl":"https://cdn.jsdelivr.net/gh/xazalea/retrograde@main/game/ycrq598s8r7r88p8j5b3ijzk2o63wtxw.html","imageUrl":null,"videoUrl":null},{"id":27756,"name":"Noob vs Pro But Knife Hit Minecraft","slug":"noob-vs-pro-but-knife-hit-minecraft","category":1,"categoryName":"Action Games","tags":[16,24,492,17,18,25,13,274,99,99,265,106,98,265],"tagNames":["1 Player","2 Player Games","2025 games","2048","2D","Action","Best Games","Dinosaur","Funny","Funny","Miner","mineblock","Minecraft","Miner"],"width":1280,"height":720,"mobile":false,"plays":0,"rating":"0","description":"A two-player game where the luckiest and most calculating wins! Noob and Pro decided to play a so-called darts game, but with knives. A fun two-player game in the style of Minecraft and Knife Hit. The game features: -Two-player mode -Single-player mode -20+ level variations -20+ single-player level variations -10 bosses -Sharp knives -Logs (just logs) -Workbenches (both spinning and non-spinning, but thats a matter of taste) -Fragile sand blocks -Evil bosses -Strange levels -And much more! The main goal of the game is to throw knives at logs until they run out.","instructions":"Controls on PC 1 player Pro Z key - shoot knife 2 player Noob Up arrow - shoot knife In two-player mode shoot knives in turns In single-player mode shoot by pressing the up arrow Controls on Mobile Tap the screen to shoot a knife","gameUrl":"https://cdn.jsdelivr.net/gh/xazalea/retrograde@main/game/hx8re2tfco2ej8l6xkuxbvlofv4l1fl2.html","imageUrl":null,"videoUrl":null},{"id":27801,"name":"Rogue Runner","slug":"rogue-runner","category":1,"categoryName":"Action Games","tags":[492,115,76,77,373],"tagNames":["2025 games","attack","Race","Racing","Sniper"],"width":800,"height":600,"mobile":false,"plays":0,"rating":"0","description":"Become the most wanted fugitive in a relentless, high-octane Rogue Runner simulator. Outsmart and outdrive an ever-growing police force in a dynamic open world. Your driving skills are the only thing between freedom and capture. Weave through dense urban traffic, execute dangerous maneuvers, and use the environment to your advantage. Every smashed barrier and near-miss intensifies the pursuit. Feel the adrenaline surge as SWAT teams join the hunt, deploying spike strips and tactical units. How long can you survive with the entire citys law enforcement on your tail? Push your vehicle to its limits, master the streets, and defy capture in","instructions":"Mouse click or tap to play","gameUrl":"https://cdn.jsdelivr.net/gh/xazalea/retrograde@main/game/0ofsn4w5u0lzffnmb1ed7d8ra7uj3wpv.html","imageUrl":null,"videoUrl":null},{"id":27812,"name":"Fall Skibidi Toilet","slug":"fall-skibidi-toilet","category":1,"categoryName":"Action Games","tags":[194,195,75,458,370,370,371,11],"tagNames":["Fall Boys","Fall Guys","Mentolatux","Sprunki","Skibidi Toilet","Skibidi Toilet","unity games for your site","WebGL"],"width":800,"height":600,"mobile":false,"plays":0,"rating":"0","description":"Dash through chaotic obstacle towers while Skibidi Toilets swarm&amp;amp;mdash;ragdoll physics, quick rounds, last one standing wins. Web Dev &amp;lt;a href=&#039;https://www.crazygamesx.com/&#039;&amp;gt;https://www.crazygamesx.com/&amp;lt;/a&amp;gt; Arcade party chaos with slippery floors, plungers as power-ups, and trap-filled courses. Solo or squad up online, unlock goofy skins, and yeet rivals off the map before the toilets get you.","instructions":"Mouse click or tap to play","gameUrl":"https://cdn.jsdelivr.net/gh/xazalea/retrograde@main/game/lx6oizv0neo53yapewhua4l4lqg0zd1d.html","imageUrl":null,"videoUrl":null},{"id":27899,"name":"3D Tower Defense","slug":"3d-tower-defense","category":1,"categoryName":"Action Games","tags":[16,96,96,25,36,7,203,181,181,115,283,13,118,118],"tagNames":["1 Player","3D Games","3D Games","Action","amazing","Arcade","Arena","arrows","arrows","attack","battleship","Best Games","Tower Defense","Tower Defense"],"width":800,"height":600,"mobile":false,"plays":0,"rating":"0","description":"Defend your base in 3D Tower Defense! Explore colorful arenas, test your logic, and enjoy funny yet challenging battles. One of the best games for strategy lovers!","instructions":"Click with interactive","gameUrl":"https://cdn.jsdelivr.net/gh/xazalea/retrograde@main/game/14dmjhvrz1a49o8mzkbm7ztup4ocbr2u.html","imageUrl":null,"videoUrl":null}]}