{"page":66,"total":3274,"pages":66,"games":[{"id":27966,"name":"Buddy Kick Archer","slug":"buddy-kick-archer","category":3,"categoryName":"Shooting Games","tags":[16,7,45,99,99,34,426,174,63,140],"tagNames":["1 Player","Arcade","free html5 games for your website","Funny","Funny","Kids","Killing","kiz10","Shooting","Stickman"],"width":480,"height":800,"mobile":false,"plays":0,"rating":"0","description":"Buddy Kick Archer is a fun and fast-paced archery challenge where you aim, shoot, and defeat quirky enemies with precision shots. Test your bow skills, unlock powerful arrows, and take down targets in creative ways. Perfect for players who love skill-based action mixed with humor and endless challenges in each level.","instructions":"Mouse click or tap to play","gameUrl":"https://cdn.jsdelivr.net/gh/xazalea/retrograde@main/game/yhrb03lzm5viyx80fucyw85ppapumvwk.html","imageUrl":null,"videoUrl":null},{"id":27967,"name":"RGB Shooter","slug":"rgb-shooter","category":3,"categoryName":"Shooting Games","tags":[16,18,25,203,283,177],"tagNames":["1 Player","2D","Action","Arena","battleship","Coloring"],"width":800,"height":600,"mobile":false,"plays":0,"rating":"0","description":"RGB Shooter is a fast-paced 2D action shooting game where color-matching meets arcade chaos! Switch between red, green, and blue bullets to destroy enemies of the same color. Use your reflexes to survive endless waves of colorful attackers. As you level up, the game becomes faster and more challenging. Activate your Ulti ability to fire random-colored bullets and turn the tide of battle when things get intense. Simple controls, vibrant visuals, and addictive gameplay make RGB Shooter a perfect experience for action and arcade fans!","instructions":"A ndash Krmz mermiyle ate et S ndash Yeil mermiyle ate et D ndash Mavi mermiyle ate et W ndash Ultiyi Aktif Et rastgele renkli mermi atar Bu kontroller ekrandaki butonlara tklanarak da kullanlabilir","gameUrl":"https://cdn.jsdelivr.net/gh/xazalea/retrograde@main/game/p0ata23ta267p4z5rp8ejs84o7gxklri.html","imageUrl":null,"videoUrl":null},{"id":27968,"name":"Bricks of Wrath","slug":"bricks-of-wrath","category":3,"categoryName":"Shooting Games","tags":[290,69,159],"tagNames":["blocky","Bullet","Shoot Em Up"],"width":800,"height":600,"mobile":false,"plays":0,"rating":"0","description":"Unleash chaos in Bricks of Wrath &amp;amp;mdash; a break-brick game with a fierce twist! Fire powerful shots to destroy the advancing wall of bricks, but stay alert &amp;amp;mdash; these aren&amp;amp;rsquo;t ordinary bricks. Once attacked, they strike back! Dodge incoming fire, time your shots, and survive the relentless onslaught. With every level, the challenge intensifies. It&amp;amp;rsquo;s not just about breaking bricks &amp;amp;mdash; it&amp;amp;rsquo;s about outlasting their wrath. How long can you hold your ground?","instructions":"Shoot and avoid getting shot by the enemy","gameUrl":"https://cdn.jsdelivr.net/gh/xazalea/retrograde@main/game/lad82v5dqpbwy41w28bble9t103wscl5.html","imageUrl":null,"videoUrl":null},{"id":27979,"name":"FireEgg","slug":"fireegg","category":3,"categoryName":"Shooting Games","tags":[16,7,13,63],"tagNames":["1 Player","Arcade","Best Games","Shooting"],"width":350,"height":600,"mobile":false,"plays":0,"rating":"0","description":"Control the chicken to fire bullets, smashing obstacles from all directions. The more obstacles you smash, the more gold coins you will obtain. Gold coins can be used to upgrade the bullet firing frequency furnace, as well as the bullet damage and rotation frequency. Its very fun. Come and give it a try","instructions":"Mouse click or tap to play","gameUrl":"https://cdn.jsdelivr.net/gh/xazalea/retrograde@main/game/hbw58xnuz792df7gv3ylf43gmn062qfg.html","imageUrl":null,"videoUrl":null},{"id":27980,"name":"Help sprunky","slug":"help-sprunky","category":3,"categoryName":"Shooting Games","tags":[217,16,18,41,84],"tagNames":[".io Games","1 Player","2D","Hypercasual","onetouch"],"width":800,"height":600,"mobile":false,"plays":0,"rating":"0","description":"Get ready for an exciting and challenging challenge! This puzzle game will test your wits and attentiveness as you help the characters complete levels with mazes, solve problems and collect important items. Simple controls, high difficulty: Easy to play: Tap and hold the characters head, then pull to move. When you release, the head automatically returns to its starting position, creating a simple but tricky control mechanism. Mazes and traps: Each level has a confusing maze with obstacles and traps through which you need to guide your character to collect the desired item.","instructions":"ap and hold the characters head with your finger on your phone or mouse on your PC Avoid the traps and collect the necessary item to complete the level","gameUrl":"https://cdn.jsdelivr.net/gh/xazalea/retrograde@main/game/lwio2pev5vso9wejhv6tw1trpeo4nqti.html","imageUrl":null,"videoUrl":null},{"id":27984,"name":"End Charge Alpha","slug":"end-charge-alpha","category":3,"categoryName":"Shooting Games","tags":[16,18,183],"tagNames":["1 Player","2D","Platform"],"width":800,"height":600,"mobile":false,"plays":0,"rating":"0","description":"A game where you are the last energy bearer in a completely vast and dull world, use your energy and try to save the world from darkness.","instructions":"W - Jump D - Right A - Left Mouse Left - Shoot hook R - Restart","gameUrl":"https://cdn.jsdelivr.net/gh/xazalea/retrograde@main/game/e4w8gz1m62kng5w16vlheikap1zh5ytt.html","imageUrl":null,"videoUrl":null},{"id":27985,"name":"Whiskers Adventures","slug":"whiskers-adventures","category":3,"categoryName":"Shooting Games","tags":[96,96,6,483,41,495,495,60,60,10],"tagNames":["3D Games","3D Games","Adventure","crazygamesunblocked","Hypercasual","2026 games","2026 games","puzzleblock","puzzleblock","Unity3D"],"width":400,"height":620,"mobile":false,"plays":0,"rating":"0","description":"Whiskers Adventures is a fun mobile game offering exciting adventures as players control a clever cat through various levels filled with puzzles, obstacles, and rewards. With engaging gameplay and captivating environments, players explore new worlds and achieve goals while enjoying unique graphics and sound effects.","instructions":"Mouse click or tap to play Q E rotate W A S D move","gameUrl":"https://cdn.jsdelivr.net/gh/xazalea/retrograde@main/game/bpint3up514tv2bjxf4ve56qcweusk2h.html","imageUrl":null,"videoUrl":null},{"id":27988,"name":"Pixel Gun Apocalypse 2025","slug":"pixel-gun-apocalypse-2025","category":3,"categoryName":"Shooting Games","tags":[492,99,204,75,213,28,63,371,11],"tagNames":["2025 games","Funny","Gun","Mentolatux","Multiplayer","Pixel","Shooting","unity games for your site","WebGL"],"width":800,"height":600,"mobile":false,"plays":0,"rating":"0","description":"Pixel Gun Apocalypse 2025 delivers intense block-style FPS action with modern weapons, diverse maps, and competitive multiplayer modes. Players can choose between SWAT and mercenaries, engage in fast-paced firefights, and master tactics for victory. Web Dev &amp;lt;a href=&#039;https://www.crazygamesonline.com/&#039;&amp;gt;https://www.crazygamesonline.com/&amp;lt;/a&amp;gt; .Updated graphics, smooth gameplay, and new maps make this edition a thrilling online shooting experience.","instructions":"Mouse loog around wasd to walk","gameUrl":"https://cdn.jsdelivr.net/gh/xazalea/retrograde@main/game/gm9nnnxkzbwlhdaco2tkavec45pkk7b9.html","imageUrl":null,"videoUrl":null},{"id":27995,"name":"Flowers vs Zombies","slug":"flowers-vs-zombies","category":3,"categoryName":"Shooting Games","tags":[18,475,120],"tagNames":["2D","garden","Zombie"],"width":720,"height":1280,"mobile":false,"plays":0,"rating":"0","description":"&amp;amp;zwnj;Flowers vs Zombies&amp;amp;zwnj; is a strategic plant-placement game where players defend against zombie attacks by placing flowers that automatically shoot bullets. Two flowers can be merged into a more advanced one, with higher-tier flowers having greater attack power. Killing zombies earns points, and the higher the score, the better the ranking.","instructions":"Mouse click or tap to play","gameUrl":"https://cdn.jsdelivr.net/gh/xazalea/retrograde@main/game/xn12cq3wtha3qeb9es5281yv7xhbtkvv.html","imageUrl":null,"videoUrl":null},{"id":28012,"name":"Bubble Shoot Merge Box 2048","slug":"bubble-shoot-merge-box-2048","category":3,"categoryName":"Shooting Games","tags":[17,21,21,41,41],"tagNames":["2048","Bubble Shooter","Bubble Shooter","Hypercasual","Hypercasual"],"width":800,"height":600,"mobile":false,"plays":0,"rating":"0","description":"Bubble Shoot Merge Box 2048 is a fast-paced puzzle shooter that combines classic bubble shooting mechanics with the addictive 2048 number merging gameplay. Aim, shoot, and merge identical numbered boxes to reach higher scores and unlock new levels. Designed for casual and competitive players alike, this hyper-casual arcade game challenges your logic, precision, and reflexes. With smooth gameplay, colorful graphics, and progressive difficulty, its perfect for mobile and desktop users looking for fun, brain-training action. Ideal for fans of merge games, number puzzles, and bubble shooters. Optimize your strategy and climb the leaderboard","instructions":"Mouse click or tap to play","gameUrl":"https://cdn.jsdelivr.net/gh/xazalea/retrograde@main/game/itojgi1jp1w75wsxdje8tv1ndlm8a0mb.html","imageUrl":null,"videoUrl":null},{"id":28015,"name":"Pixel Legyfare Wars","slug":"pixel-legyfare-wars","category":3,"categoryName":"Shooting Games","tags":[204,513,75,213,28,63,371,53,11],"tagNames":["Gun","legyfare","Mentolatux","Multiplayer","Pixel","Shooting","unity games for your site","Warrior","WebGL"],"width":800,"height":600,"mobile":false,"plays":0,"rating":"0","description":"Pixel Legyfare Wars is a fast-paced, turn-based strategy game combining retro pixel graphics with modern warfare. Command your blocky armies on grid-based battlefields, using unique units and smart tactics to outmaneuver opponents. Web Dev &amp;lt;a href=&#039;https://www.crazygamesx.com/&#039;&amp;gt;https://www.crazygamesx.com/&amp;lt;/a&amp;gt;","instructions":"Mouse loog WASD walk","gameUrl":"https://cdn.jsdelivr.net/gh/xazalea/retrograde@main/game/ldkc6qskqhuz4baigzg3kris6ng7r6ao.html","imageUrl":null,"videoUrl":null},{"id":28016,"name":"AgeOf2048","slug":"ageof2048","category":3,"categoryName":"Shooting Games","tags":[16,17,13,60],"tagNames":["1 Player","2048","Best Games","puzzleblock"],"width":350,"height":600,"mobile":false,"plays":0,"rating":"0","description":"Very fun composition game, sliding the screen of the same building will synthesize new buildings. When you reach a certain building level, new building styles will be unlocked. Come and play.","instructions":"Mouse click or tap to play","gameUrl":"https://cdn.jsdelivr.net/gh/xazalea/retrograde@main/game/kucts59lumpx0mu3j41fr4aj3junu0zc.html","imageUrl":null,"videoUrl":null},{"id":28023,"name":"StickmanSniper","slug":"stickmansniper","category":3,"categoryName":"Shooting Games","tags":[25,7,200,191,174,200,373,140],"tagNames":["Action","Arcade","First Person Shooter","html5 games for your site","kiz10","First Person Shooter","Sniper","Stickman"],"width":480,"height":800,"mobile":false,"plays":0,"rating":"0","description":"Highly trained, these games celebrate the marksmen with the most deadly of aim. In these sniper games the goal is to avoid detection and use your specialized training to infiltrate, observe and eliminate enemy troops at long distances before they even spot your location.","instructions":"Use the mouse or touch to play","gameUrl":"https://cdn.jsdelivr.net/gh/xazalea/retrograde@main/game/pnu56ck5blbnesweiw2z1ule6o530x9e.html","imageUrl":null,"videoUrl":null},{"id":28024,"name":"PGA5","slug":"pga5","category":3,"categoryName":"Shooting Games","tags":[75,213,28,63,11],"tagNames":["Mentolatux","Multiplayer","Pixel","Shooting","WebGL"],"width":800,"height":600,"mobile":false,"plays":0,"rating":"0","description":"Pixel Gun Apocalypse 5 is a fast-paced multiplayer FPS that plunges players into blocky arenas. Featuring classic modes like Team Deathmatch, Free-for-all, and a thrilling Zombie survival mode, it offers diverse combat experiences. Web Dev &amp;lt;a href=&#039;https://www.kizi10.org/&#039;&amp;gt;https://www.kizi10.org/&amp;lt;/a&amp;gt; Players can unlock new weapons, earn experience by eliminating opponents, and even pilot a helicopter for an added layer of chaotic fun.","instructions":"Mouse to look and shoot WASD walk","gameUrl":"https://cdn.jsdelivr.net/gh/xazalea/retrograde@main/game/x4zc4iyxb80853jvt476j3upe8uin05c.html","imageUrl":null,"videoUrl":null},{"id":28025,"name":"Jungle Girl: Coloring Pages","slug":"jungle-girl-coloring-pages","category":3,"categoryName":"Shooting Games","tags":[177,177,377],"tagNames":["Coloring","Coloring","Dora"],"width":1920,"height":1080,"mobile":false,"plays":0,"rating":"0","description":"Jungle Girl: Coloring Pages is a fun and creative game made for kids who love to color and explore. With a wide selection of Jungle Girl-themed drawings, children can choose their favorite pictures and fill them with bright, beautiful colors. The game is easy to use, with simple controls that let kids tap to color, erase mistakes, and even save their artwork.","instructions":"Pick a drawing you like and press Play to start Choose colors from the palette and begin coloring","gameUrl":"https://cdn.jsdelivr.net/gh/xazalea/retrograde@main/game/s8duie7xvruui7yuxijc4s74crrf8dy9.html","imageUrl":null,"videoUrl":null},{"id":28026,"name":"STELLAR GUARDIAN","slug":"stellar-guardian","category":3,"categoryName":"Shooting Games","tags":[18,7],"tagNames":["2D","Arcade"],"width":800,"height":600,"mobile":false,"plays":0,"rating":"0","description":"Stellar Guardian &amp;amp;ndash; Cosmic Defense Force is a fast-paced space shooter where you command powerful ships, unlock upgrades, and defend the galaxy across challenging missions and game modes. to fix the lag you need to keep the PC on a full screen, while on other devices it runs smoothly","instructions":"Controls Desktop larr rarr or A D ndash Move left and right Spacebar or Click ndash Shoot E ndash Activate shield F ndash Slow motion C ndash Special attack link https stellarguardian88 onrender com Shift ndash Precision mode Mo","gameUrl":"https://cdn.jsdelivr.net/gh/xazalea/retrograde@main/game/unnmh9hjtru4a1sfxm7sjqcxiv69e1s4.html","imageUrl":null,"videoUrl":null},{"id":28034,"name":"Pixel Paintball Wars","slug":"pixel-paintball-wars","category":3,"categoryName":"Shooting Games","tags":[75,510,510,63,371,53,11],"tagNames":["Mentolatux","paintball","paintball","Shooting","unity games for your site","Warrior","WebGL"],"width":800,"height":600,"mobile":false,"plays":0,"rating":"0","description":"Pixel Paintball Wars is a fast-paced multiplayer shooter that blends retro pixel graphics with the chaotic fun of paintball. Players battle across vibrant, blocky arenas, using a variety of paintball guns and power-ups to eliminate opponents.","instructions":"Mouse wasd walk","gameUrl":"https://cdn.jsdelivr.net/gh/xazalea/retrograde@main/game/hb1ltv4dne082zkwrc2pgbjmeynjmji8.html","imageUrl":null,"videoUrl":null},{"id":28035,"name":"Park Them All","slug":"park-them-all","category":3,"categoryName":"Shooting Games","tags":[223,223,206,206],"tagNames":["carparking","carparking","sorting","sorting"],"width":1080,"height":1920,"mobile":false,"plays":0,"rating":"0","description":"In this fun and addictive game, your main task is to sort out the parking spots so that all the cars can find their place and settle down comfortably. Its like being the air traffic controller of a bustling car parking lot! Whether you call it Park Away, Seat Cars Away, or Master of Parking, the goal remains the same &amp;amp;ndash; clear the car jam by arranging the parking spots smartly.","instructions":"tap to park","gameUrl":"https://cdn.jsdelivr.net/gh/xazalea/retrograde@main/game/t51ybtaf3bckodi7ljrl5t27l2o1nyyh.html","imageUrl":null,"videoUrl":null},{"id":28036,"name":"Rage Swarm","slug":"rage-swarm","category":3,"categoryName":"Shooting Games","tags":[25,6,69,45,191,174,190,159],"tagNames":["Action","Adventure","Bullet","free html5 games for your website","html5 games for your site","kiz10","monstertruck","Shoot Em Up"],"width":480,"height":800,"mobile":false,"plays":0,"rating":"0","description":"Take powerful weapons and make your way through a huge number of enemies in order to get to the boss and eliminate him. Dont forget to pick up useful improvements during the mission to make it easier to complete the tasks at hand.","instructions":"Use the mouse or touch to move","gameUrl":"https://cdn.jsdelivr.net/gh/xazalea/retrograde@main/game/zn9q0fe95iuih8k70wauc1jwmbsuwpnn.html","imageUrl":null,"videoUrl":null},{"id":28037,"name":"Lazzy Birds","slug":"lazzy-birds","category":3,"categoryName":"Shooting Games","tags":[16,18,269,7,13,498,251,49,70],"tagNames":["1 Player","2D","angrybirds","Arcade","Best Games","flappybird","building","Classic","Clicker"],"width":800,"height":450,"mobile":false,"plays":0,"rating":"0","description":"Lazzy Birds is a fun and physics-based puzzle game where you launch the birds using a slingshot to destroy enemies. Your mission is to defeat all enemies on each level using special birds and limited shorts. Birds: 1 Blue: A simple bird. 2 Black: A bomber bird. 3 Green: A speed bird. 4 Red: A heavy bird.","instructions":"Controls Click and hold the bird to pull back the slingshot Drag to Aim Release to Launch Click during flight activate special ability","gameUrl":"https://cdn.jsdelivr.net/gh/xazalea/retrograde@main/game/98he3ddjltg9jrt5ba53tnegnbunm2aj.html","imageUrl":null,"videoUrl":null},{"id":28044,"name":"Pixel Zombie Survival 2025","slug":"pixel-zombie-survival-2025","category":3,"categoryName":"Shooting Games","tags":[16,75,213,28,11,120],"tagNames":["1 Player","Mentolatux","Multiplayer","Pixel","WebGL","Zombie"],"width":800,"height":600,"mobile":false,"plays":0,"rating":"0","description":"Pixel Zombie Survival 2025 is an action-packed survival shooter where you battle waves of undead in a pixelated world. Collect weapons, upgrade skills, and fight solo or with friends to survive the zombie apocalypse of the future! use WASD to walk, mouse to shoot, tab for menu. Web Dev &amp;lt;a href=&#039;https://www.crazygamesonline.com/&#039;&amp;gt;https://www.crazygamesonline.com/&amp;lt;/a&amp;gt;","instructions":"Mouse click or tap to play","gameUrl":"https://cdn.jsdelivr.net/gh/xazalea/retrograde@main/game/j9ogt0jx0a8t6m5pq7tdnudrlzjjc2cl.html","imageUrl":null,"videoUrl":null},{"id":28097,"name":"Crown Cannon","slug":"crown-cannon","category":3,"categoryName":"Shooting Games","tags":[25,287,5,118],"tagNames":["Action","Sandbox","Strategy","Tower Defense"],"width":1280,"height":720,"mobile":false,"plays":0,"rating":"0","description":"Crown &amp;amp;amp; Cannon is a fast-paced 2D strategy game where players expand territory, deploy various weapons, and battle dynamic AI on destructible terrain. It features upgradeable units, strategic combat, and is optimized for Web platforms and cross platform.","instructions":"PC arrow keys space Android touch controls","gameUrl":"https://cdn.jsdelivr.net/gh/xazalea/retrograde@main/game/p8vp0dxq81p2nz04byvs4g0oh24fvjme.html","imageUrl":null,"videoUrl":null},{"id":28098,"name":"Backrooms Assault 2","slug":"backrooms-assault-2","category":3,"categoryName":"Shooting Games","tags":[16,96,96,25,324,200,204,200,159,200,63,10],"tagNames":["1 Player","3D Games","3D Games","Action","CSGO","First Person Shooter","Gun","First Person Shooter","Shoot Em Up","First Person Shooter","Shooting","Unity3D"],"width":960,"height":600,"mobile":false,"plays":0,"rating":"0","description":"Backrooms Assault 2 is a first person shooter game where your mission is to shoot your way through the backrooms and find a way to the exit in order to progress and unlock new more powerful weapons to survive the increasing number of enemies.","instructions":"WASD - Move LMB - Shoot RMB - Aim Flashlight R - Reload F - Use G - Grenade H - Melee C - Crouch M - Mute Space - Jump Shift - Run 1-9 - Select Weapon TAB - Pause","gameUrl":"https://cdn.jsdelivr.net/gh/xazalea/retrograde@main/game/s9et24t9023vk2kk72m1eygr7yrk59d0.html","imageUrl":null,"videoUrl":null},{"id":28121,"name":"Aim Master","slug":"aim-master","category":3,"categoryName":"Shooting Games","tags":[16,18,200],"tagNames":["1 Player","2D","First Person Shooter"],"width":800,"height":600,"mobile":false,"plays":0,"rating":"0","description":"Aim. Shoot. Score! Test your precision in this satisfying stickman shooting challenge. Drag your aim to line up the perfect shot, then fire! Score exactly 10 to pass the level &amp;amp;mdash; miss, and you&amp;amp;rsquo;re out of bullets! With smooth camera shakes, satisfying effects, and tricky moving targets, only the sharpest shooters will survive. Think youre accurate enough? Play now and prove it!","instructions":"Mouse Click Tap ndash Shoot a bullet Aim Reticle ndash Automatically moves based on level Retry Button ndash Restart current level after failing","gameUrl":"https://cdn.jsdelivr.net/gh/xazalea/retrograde@main/game/psizgzz3jnafzlmnpctk8bxcfc1jfmk0.html","imageUrl":null,"videoUrl":null}]}