{"page":4,"total":158,"pages":4,"games":[{"id":27962,"name":"flappy climate","slug":"flappy-climate","category":15,"categoryName":"Clicker Games","tags":[16,41,70],"tagNames":["1 Player","Hypercasual","Clicker"],"width":1280,"height":720,"mobile":false,"plays":0,"rating":"0","description":"The game is Flappy weather, you can play the flappy bird liked games , so this game also so fun and especially this game as one new thing is if you can hit the obstacles you can continue the game up to 3 lives . when the score is 10 greater the climate effects also changed. so much fun and addictive game . Thanking you.","instructions":"In windows use mouse left click and android devices touch controls","gameUrl":"https://cdn.jsdelivr.net/gh/xazalea/retrograde@main/game/dt780txhz9ncslrwuvqpyrbeit30ei9k.html","imageUrl":null,"videoUrl":null},{"id":27970,"name":"BTC clicker","slug":"btc-clicker","category":15,"categoryName":"Clicker Games","tags":[70,70,476],"tagNames":["Clicker","Clicker","idle"],"width":800,"height":600,"mobile":false,"plays":0,"rating":"0","description":"Click the Bitcoin and do upgrades like autoclicker and Bitcoin per click, and you have achievements like getting 100 Bitcoin , so what are you waiting for? Start clicking! :D","instructions":"Mouse click or tap to play","gameUrl":"https://cdn.jsdelivr.net/gh/xazalea/retrograde@main/game/aiht7jx9eiy1uvttc053mzub9cx1zzg4.html","imageUrl":null,"videoUrl":null},{"id":28027,"name":"Fun Farm For Kids","slug":"fun-farm-for-kids","category":15,"categoryName":"Clicker Games","tags":[4,330,34,168],"tagNames":["Family","Farm","Kids","mapi games"],"width":1024,"height":768,"mobile":false,"plays":0,"rating":"0","description":"Fun Farm For Kids is an exciting and educational game designed especially for toddlers and preschoolers (ages 1.5 to 5). Your little ones will explore a colorful farm full of adorable animals, cheerful sounds, and creative activities! Key Features: Animal Sounds &amp;amp;ndash; Tap on each animal to hear its real sound: cow, dog, duck, cat, horse, pig, sheep, and more! Drawing &amp;amp;amp; Coloring &amp;amp;ndash; Let your child unleash their creativity with easy-to-use drawing and coloring tools. Learn Colors &amp;amp;ndash; Fun mini-games that teach kids to recognize and name basic colors. Realistic Sounds &amp;amp;amp; Music &amp;amp;ndash; High-quality sound effects and background music for an","instructions":"Mouse click or tap to play","gameUrl":"https://cdn.jsdelivr.net/gh/xazalea/retrograde@main/game/zskepvf53bt5bcmcj8sah3xap3vxqk2f.html","imageUrl":null,"videoUrl":null},{"id":28028,"name":"Ball Cup Boom","slug":"ball-cup-boom","category":15,"categoryName":"Clicker Games","tags":[510,83,166,60,126],"tagNames":["paintball","Logical","Mouse","puzzleblock","Skills"],"width":800,"height":600,"mobile":false,"plays":0,"rating":"0","description":"Ball Cup Boom is a physics-based puzzle game where you must carefully pick up the ball using your mouse and guide it into the cup. Every level brings new obstacles and challenges to test your aim, timing, and hand-eye coordination. It&amp;amp;rsquo;s simple to play, yet tricky to master. Enjoy satisfying win moments and keep improving your accuracy in this fun and casual HTML5 puzzle game made with GDevelop!","instructions":"Mouse Left Button ndash Hold to pick the ball Drag ndash Move the ball Release ndash Drop it into the cup","gameUrl":"https://cdn.jsdelivr.net/gh/xazalea/retrograde@main/game/4ppvzjp3c03w9kpdieq1plwhhosgbkcj.html","imageUrl":null,"videoUrl":null},{"id":28092,"name":"Flap Hero","slug":"flap-hero","category":15,"categoryName":"Clicker Games","tags":[16,18,13,41,49,70,150,87,84],"tagNames":["1 Player","2D","Best Games","Hypercasual","Classic","Clicker","endless","fly","onetouch"],"width":800,"height":450,"mobile":false,"plays":0,"rating":"0","description":"Flap Hero is a fast-paced arcade game inspired by the classic Flappy Bird. Fly through challenging red pipes with precise timing and quick reflexes. Its easy to play but hard to master!","instructions":"Controls Tap Mobile Touchscreen Spacebar Keyboard Stay in the air dodge obstacles and become the ultimate Flap Hero","gameUrl":"https://cdn.jsdelivr.net/gh/xazalea/retrograde@main/game/yqabq4g5ci6bkf35yt7860k2dgn9wcsc.html","imageUrl":null,"videoUrl":null},{"id":28118,"name":"Defeat The Witch","slug":"defeat-the-witch","category":15,"categoryName":"Clicker Games","tags":[6,35,215],"tagNames":["Adventure","Mobile","Turn Based"],"width":854,"height":480,"mobile":false,"plays":0,"rating":"0","description":"You are a Castlevania soldier, and it is up to you to kill the witches in the castle and occupy the castle. Try to see how many levels you can reach. Just click to operate.","instructions":"Click or Touch","gameUrl":"https://cdn.jsdelivr.net/gh/xazalea/retrograde@main/game/9lcuehhwrgc8h9oqr36mbcffhtsufrbz.html","imageUrl":null,"videoUrl":null},{"id":28119,"name":"ZombsmiS","slug":"zombsmis","category":15,"categoryName":"Clicker Games","tags":[176,119,215],"tagNames":["Simulator","survival","Turn Based"],"width":800,"height":600,"mobile":false,"plays":0,"rating":"0","description":"You are responsible for life and peace in a simulation village after a zombie apocalypse, you need to monitor your groups vital signs and prevent the wall from falling, sometimes your villagers can make decisions themselves. Just Simulate! How long can you hold out?","instructions":"Mouse click or tap to play","gameUrl":"https://cdn.jsdelivr.net/gh/xazalea/retrograde@main/game/86wql13clu8uezt2fx9fnl0ugslh85d1.html","imageUrl":null,"videoUrl":null},{"id":28142,"name":"tic tac toe html","slug":"tic-tac-toe-html","category":15,"categoryName":"Clicker Games","tags":[16,24,24,487],"tagNames":["1 Player","2 Player Games","2 Player Games","Brainrot sahuuur"],"width":800,"height":600,"mobile":false,"plays":0,"rating":"0","description":"Enjoy a classic game of Tic Tac Toe, now available in HTML! Challenge your friends or play against the computer in this simple yet addictive game. With an easy-to-use interface, its perfect for all ages. Test your strategy and see if you can win before your opponent! Web Dev &amp;lt;a href=&#039;https://freecrazygames.io/&#039;&amp;gt;https://freecrazygames.io/&amp;lt;/a&amp;gt;","instructions":"Mouse click","gameUrl":"https://cdn.jsdelivr.net/gh/xazalea/retrograde@main/game/upf7jow3akcirma7ysj1ku0j2m0vn4fi.html","imageUrl":null,"videoUrl":null}]}