{"page":7,"total":308,"pages":7,"games":[{"id":27815,"name":"Fruit catcher apple","slug":"fruit-catcher-apple","category":9,"categoryName":"Fighting Games","tags":[16,18,7,132,41,485,261,261,146],"tagNames":["1 Player","2D","Arcade","Cartoon Network","Hypercasual","catcher","Fruits","Fruits","Relaxation"],"width":400,"height":800,"mobile":false,"plays":0,"rating":"0","description":"Fruit Catcher is a fast-paced, colorful arcade game where your goal is simple &amp;amp;ndash; catch as many falling fruits as you can! Move the basket left and right to grab apples. Every fruit you catch increases your score, but miss too many and it&amp;amp;rsquo;s game over! With cheerful visuals, fun animations, and simple controls, Fruit Catcher is the perfect quick-play game for players of all ages.","instructions":"Keyboard Desktop Move Left rarr Arrow Left Move Right rarr Arrow Right Mouse Desktop move mouse left and right to move the basket Touch Mobile swipe left right to move the basket","gameUrl":"https://cdn.jsdelivr.net/gh/xazalea/retrograde@main/game/oza4bpg2zq2hs4fd5c1s8lq4pg0wvihp.html","imageUrl":null,"videoUrl":null},{"id":27816,"name":"Body Drop","slug":"body-drop","category":9,"categoryName":"Fighting Games","tags":[169,169,344,99,44,176,140],"tagNames":["destroying","destroying","destruction","Funny","Physics","Simulator","Stickman"],"width":800,"height":600,"mobile":false,"plays":0,"rating":"0","description":"Body Drop is an exciting game with realistic physics and excellent three&amp;amp;mdash;dimensional graphics, in which you have to test the strength of the dummys body by dropping it from various structures!","instructions":"You need to launch the balls at the dummy so as to inflict the greatest amount of damage to it Control is carried out with the mouse Left-click to launch the balls Right mouse button - camera rotation Mouse wheel - zoom in out of the camera","gameUrl":"https://cdn.jsdelivr.net/gh/xazalea/retrograde@main/game/ssevmpwntk2cpkny075qgdtpa58ic387.html","imageUrl":null,"videoUrl":null},{"id":27862,"name":"Terminal Master Bus Tycoon","slug":"terminal-master-bus-tycoon","category":9,"categoryName":"Fighting Games","tags":[328,144,233],"tagNames":["Business","Simulation","vehicle"],"width":1280,"height":720,"mobile":false,"plays":0,"rating":"0","description":"Play the bus station simulation tycoon game in the Terminal Master - Bus Tycoon. From a small bus station to a global transportation mogul. Keep upgrading stations, buying buses, and recruiting employees. Increase efficiency and revenue. Buy new buses, unlock faster and fancier vehicles. Its easy and stress-free to earn even when youre offline. Keep upgrading until you are the top bus tycoon in the world.","instructions":"Mouse click or tap to play","gameUrl":"https://cdn.jsdelivr.net/gh/xazalea/retrograde@main/game/cptb46rrt3zu7opt09qswu8ndptftjbl.html","imageUrl":null,"videoUrl":null},{"id":27863,"name":"Pull the Pin Fish Rescue","slug":"pull-the-pin-fish-rescue","category":9,"categoryName":"Fighting Games","tags":[37,109],"tagNames":["Fishing","Rescue"],"width":1080,"height":1280,"mobile":false,"plays":0,"rating":"0","description":"Pull the Pin: Fish Rescue! is a relaxing and addictive puzzle game with lots of interesting puzzles. You will see several niches in it. They will be separated by partitions. In one niche you will see a fish, and in another water. You will need to carefully study everything and pull the pin. Thus, you will open it and water will get to the fish.","instructions":"use mouse or swipe screen","gameUrl":"https://cdn.jsdelivr.net/gh/xazalea/retrograde@main/game/rhtnddpq95ww5wuo0yak159m7df41kif.html","imageUrl":null,"videoUrl":null},{"id":27902,"name":"Vector Parkour","slug":"vector-parkour","category":9,"categoryName":"Fighting Games","tags":[25,50,45,42,174,490,66,140],"tagNames":["Action","Escape","free html5 games for your website","Jumping","kiz10","realistic","running","Stickman"],"width":800,"height":480,"mobile":false,"plays":0,"rating":"0","description":"Vector is an exciting arcade-style game featuring you as the exceptional free runner who wont be held down by the system. Run, jump and climb using techniques based on the urban-ninja sport of parkour with Big Brother in hot pursuit!","instructions":"Use the keyboard or Mouse to play","gameUrl":"https://cdn.jsdelivr.net/gh/xazalea/retrograde@main/game/gcg6mybdrkv0l5midg3b798bx5h30ltk.html","imageUrl":null,"videoUrl":null},{"id":27903,"name":"3d Puzzle","slug":"3d-puzzle","category":9,"categoryName":"Fighting Games","tags":[96,60,60],"tagNames":["3D Games","puzzleblock","puzzleblock"],"width":800,"height":600,"mobile":false,"plays":0,"rating":"0","description":"3D isometric Puzzle Game is a fun and addictive puzzle game with isometric tiles. Find secret path to finish all levels. - move the player to the next isometric block. - Once you leave a yellow block, it will fall to the ground. - To finish a level, all yellow blocks have to be down on the ground and the player has to be on the Purple block, to solve the puzzle","instructions":"Mouse click or tap or swipe to play","gameUrl":"https://cdn.jsdelivr.net/gh/xazalea/retrograde@main/game/omk6vjruzury89ordfkxxohwysej87tb.html","imageUrl":null,"videoUrl":null},{"id":27994,"name":"Stickman Slash","slug":"stickman-slash","category":9,"categoryName":"Fighting Games","tags":[7,428,461,45,426,174,297,457,140],"tagNames":["Arcade","Blood","firefighters","free html5 games for your website","Killing","kiz10","Levels","sliding","Stickman"],"width":480,"height":800,"mobile":false,"plays":0,"rating":"0","description":"Experience the world of one of your favorite fighting action games but with stickman as main hero! Advanced physics and immersive graphics have brought this experience to a whole new level for players!","instructions":"Use the mouse or touch to fight","gameUrl":"https://cdn.jsdelivr.net/gh/xazalea/retrograde@main/game/dimgvlqk0miw677p6zv1snl4u3491l3i.html","imageUrl":null,"videoUrl":null},{"id":28019,"name":"Stickman Army Pusher","slug":"stickman-army-pusher","category":9,"categoryName":"Fighting Games","tags":[96,41,140],"tagNames":["3D Games","Hypercasual","Stickman"],"width":350,"height":600,"mobile":false,"plays":0,"rating":"0","description":"Stickman Army Pusher is a fun and addictive game where you play as a blue stickman commander. Your goal is to strategically place blue stickmen to push the red stickmen off the edge. Use your army wisely to outnumber and push the opponents away, winning each level by making all red stickmen fall. Enjoy smooth gameplay and simple controls, perfect for quick and exciting battles.","instructions":"Tap or mouse click to play","gameUrl":"https://cdn.jsdelivr.net/gh/xazalea/retrograde@main/game/sxmnfs0flc0f4xlddomb05idgbh9p975.html","imageUrl":null,"videoUrl":null}]}