{"page":89,"total":4410,"pages":89,"games":[{"id":28104,"name":"Turbo Drive Mode Blitz","slug":"turbo-drive-mode-blitz","category":2,"categoryName":"Racing Games","tags":[491,188,9],"tagNames":["cargo","city","Driving"],"width":1334,"height":750,"mobile":false,"plays":0,"rating":"0","description":"Ready to feel the speed rush? Turbo Drive: Mode Blitz is a nervous racing simulation game that brings together speed, awesome car designs, and driving challenges. Here, you&amp;amp;rsquo;ll control your custom-designed supercar and race in the open city. Accept a mission to send a student to school. Get rewarded for completing the task.","instructions":"Mouse click or tap to play","gameUrl":"https://cdn.jsdelivr.net/gh/xazalea/retrograde@main/game/960f0t0d0xo4pdmdar46bui34lxe3ndk.html","imageUrl":null,"videoUrl":null},{"id":28108,"name":"Hazard Heights","slug":"hazard-heights","category":2,"categoryName":"Racing Games","tags":[238,491,76,120],"tagNames":["Alien","cargo","Race","Zombie"],"width":800,"height":600,"mobile":false,"plays":0,"rating":"0","description":"Hazard Heights is a fast-paced vertical action game where precision and timing are your only allies. Guide your player upward through increasingly dangerous territory, dodging enemy objects that zip horizontally across the screen. In the early stages, narrow passages offer some shelter, but soon the environment opens up, forcing you to navigate freely in an exposed, chaotic space &amp;amp;mdash; making every move count. Survive long enough and you&amp;amp;rsquo;ll reach your ultimate reward: your getaway car, waiting at the summit, ready to drive you away from the peril. The longer you ascend without collision, the higher your score climbs.","instructions":"Use mouse-up to move ahead","gameUrl":"https://cdn.jsdelivr.net/gh/xazalea/retrograde@main/game/j3696t3w3nl7d05dvrsvxzaulvnd587j.html","imageUrl":null,"videoUrl":null},{"id":28109,"name":"Mr Shinchan Crayon Solving","slug":"mr-shinchan-crayon-solving","category":2,"categoryName":"Racing Games","tags":[292,78,239,132,177],"tagNames":["Anime","Baby Games","Baby Hazel","Cartoon Network","Coloring"],"width":960,"height":540,"mobile":false,"plays":0,"rating":"0","description":"From the popular game Crayon shin-chan Little Helper , you can enjoy a variety of challenges while playing! There are many things you can do such as cleaning up or washing clothes, even shopping and care for pets and fishing goldfish Even if you dont know the method or order, just play with shin-chan and can be very happy! Through the playing house games, you can play a lot of little helper missions! all content that can be enjoyed regardless of age!","instructions":"Mouse click or tap to play","gameUrl":"https://cdn.jsdelivr.net/gh/xazalea/retrograde@main/game/wkokj30hsjf5iwczg486ovsv1w8tc6xc.html","imageUrl":null,"videoUrl":null},{"id":28125,"name":"Sprunki Run","slug":"sprunki-run","category":2,"categoryName":"Racing Games","tags":[43,66,458],"tagNames":["Obstacle","running","Sprunki"],"width":1334,"height":750,"mobile":false,"plays":0,"rating":"0","description":"Begin an endless run filled with laughter, challenges and surprises. In Sprunki Run, youll take control of the adorable Sprunki team and run on a vibrant platform. You need to choose the proper numbered doors. Keep growing your team. Avoid the rolling spikes, jump over obstacles and reach the finish line!","instructions":"Mouse click or tap to play","gameUrl":"https://cdn.jsdelivr.net/gh/xazalea/retrograde@main/game/woy18av1rsbz0xpvt67k4oxzjs6c3ncs.html","imageUrl":null,"videoUrl":null},{"id":28126,"name":"Brainrot Merge","slug":"brainrot-merge","category":2,"categoryName":"Racing Games","tags":[16,26,487,479,487,58,482,482,482],"tagNames":["1 Player","Animal","Brainrot sahuuur","Brainrot Italian","Brainrot sahuuur","Matching","Tung Tung Tung Sahur","Tung Tung Tung Sahur","Tung Tung Tung Sahur"],"width":1920,"height":1080,"mobile":false,"plays":0,"rating":"0","description":"Get ready for a weirdly satisfying evolution puzzle! In Brainrot Merge, drop creatures like Tun-Tun-Tun Sahur, Chimpanzini-Bananini, and Spioniro-Golubiro. Watch them bounce, roll, and merge into even stranger beings! A mix of physics and pure absurdity &amp;amp;mdash; perfect for when your brain needs a break.","instructions":"- Drag left or right to choose where to drop the creature - When identical creatures touch mdash they merge - Merged creatures evolve into new forms - The higher the level the more points you earn","gameUrl":"https://cdn.jsdelivr.net/gh/xazalea/retrograde@main/game/j00jvss4g2nby7optz97bp2xtj1wy6nu.html","imageUrl":null,"videoUrl":null},{"id":28131,"name":"Tralalero Tralala Jeep Adventure","slug":"tralalero-tralala-jeep-adventure","category":2,"categoryName":"Racing Games","tags":[7,194,479,491,81,9,41,480,489,34,35,504],"tagNames":["Arcade","Fall Boys","Brainrot Italian","cargo","Collecting","Driving","Hypercasual","Italian Brainrot","jeep","Kids","Mobile","Tralalero Tralala"],"width":854,"height":480,"mobile":false,"plays":0,"rating":"0","description":"Tralalero Tralala Jeep Adventure is a bumpy ride of giggles and thrills. Hop into your silly jeep and zoom through twisty tracks full of wobbly fun. Collect shiny coins like a treasure-hungry raccoon on a candy spree. Dodge loony obstacles, bounce like jelly, and honk your way to the finish.","instructions":"W A S D to drive","gameUrl":"https://cdn.jsdelivr.net/gh/xazalea/retrograde@main/game/an6ivuc0bf2mlmeccxpgmoy62cdn196v.html","imageUrl":null,"videoUrl":null},{"id":28132,"name":"Match Fighter","slug":"match-fighter","category":2,"categoryName":"Racing Games","tags":[24,18,283,461,299,56,56,57],"tagNames":["2 Player Games","2D","battleship","firefighters","Street Fighting","Match 3","Match 3","Match3"],"width":720,"height":1280,"mobile":false,"plays":0,"rating":"0","description":"Match Fighter is a vibrant match-3 fighting game where classic martial arts meet puzzle action! Play as a skilled warrior and take on a series of powerful opponents. Match tiles to strike and unleash special moves in intense one-on-one duels. Every combo you make fuels your fighting spirit. Outsmart your enemies, climb the ranks, and prove yourself as the ultimate martial arts champion! Can you match your way to victory?","instructions":"How to Play 1 Match 3 or more tiles of the same type to perform attacks 2 Build combos to deal more damage and charge your super move 3 Take turns with your opponent mdash plan your moves carefully 4 Defeat your enemy by reducing their health to","gameUrl":"https://cdn.jsdelivr.net/gh/xazalea/retrograde@main/game/9msfg45e79xq4jmoconwm2a2ra7xe2de.html","imageUrl":null,"videoUrl":null},{"id":28136,"name":"Snowboard Game Party","slug":"snowboard-game-party","category":2,"categoryName":"Racing Games","tags":[213,66,184,171],"tagNames":["Multiplayer","running","Snow","Sports"],"width":1334,"height":750,"mobile":false,"plays":0,"rating":"0","description":"Begin snow racing thrill in Snowboard Game Party. Its a high-energy multiplayer ski sport challenge. In this adrenaline-filled winter sports game, you&amp;amp;rsquo;ll join other players on dynamic ski tracks full of surprises. Flexibly control your hero and race against other opponents. While keeping your speed! Avoid snowballs, fences, sudden slopes, etc. Win races to earn points, unlock gear, and customize your style!","instructions":"Mouse click or tap to play","gameUrl":"https://cdn.jsdelivr.net/gh/xazalea/retrograde@main/game/e60tb5zjmg6wfnkaddqv8bji60h8gx50.html","imageUrl":null,"videoUrl":null},{"id":28137,"name":"Rapid Apex Rush","slug":"rapid-apex-rush","category":2,"categoryName":"Racing Games","tags":[13,193,213,76],"tagNames":["Best Games","Supercars","Multiplayer","Race"],"width":800,"height":600,"mobile":false,"plays":0,"rating":"0","description":"Rapid Apex Rush puts you in the driver&amp;amp;rsquo;s seat of an adrenaline-fueled formula-racing challenge! Master tight corners, plan your turns with precision, and harness powerful speed boosts to stay ahead of the pack. As you navigate high-speed circuits, youll need sharp reflexes to dodge rival vehicles and hazards while plotting the fastest racing line.","instructions":"Use arrow keys to turn and use instructions in game","gameUrl":"https://cdn.jsdelivr.net/gh/xazalea/retrograde@main/game/jp22mjv7m4b283qu7mhzsy599omxbi13.html","imageUrl":null,"videoUrl":null},{"id":28150,"name":"Drive.IO","slug":"drive-io","category":2,"categoryName":"Racing Games","tags":[96,491,188,223,420],"tagNames":["3D Games","cargo","city","carparking","Train"],"width":800,"height":600,"mobile":false,"plays":0,"rating":"0","description":"Drive.IO is a smart traffic control game where you take charge of managing cars at busy city intersections! Your goal is to let vehicles pass at the right time to avoid crashes. Be quick, precise, and alert &amp;amp;mdash; one mistake can lead to a traffic disaster! Control multiple cars at once, test your reflexes, and enjoy a colorful low-poly city full of life. How long can you keep the roads safe","instructions":"Use the computer mouse to stop the car","gameUrl":"https://cdn.jsdelivr.net/gh/xazalea/retrograde@main/game/ujr8h44aiw5km3mp3g8srxlfuwcmn1pw.html","imageUrl":null,"videoUrl":null}]}