{"page":5,"total":228,"pages":5,"games":[{"id":27829,"name":"K Pop Demon Hunter Fashion","slug":"k-pop-demon-hunter-fashion","category":10,"categoryName":"Girls Games","tags":[105,135,136],"tagNames":["Cute","Dress Up","Fashion"],"width":800,"height":600,"mobile":false,"plays":0,"rating":"0","description":"Unleash your creativity in K-Pop Demon Hunter Fashion, a unique dress up game where trendy K-Pop meets gothic demon hunter vibes. Style glamorous idols in bold K-Pop looks while blending them with dark, fantasy-inspired outfits. From leather jackets and spiked boots to neon hair, glowing makeup, and mystical accessories&amp;amp;mdash;you&amp;amp;rsquo;ll create fierce, otherworldly fashion statements.","instructions":"Left Mouse Button Click","gameUrl":"https://cdn.jsdelivr.net/gh/xazalea/retrograde@main/game/k2r4qscut9l09grrw6qsat9pcfzcgteb.html","imageUrl":null,"videoUrl":null},{"id":27833,"name":"Travel With Me: ASMR Edition","slug":"travel-with-me-asmr-edition","category":10,"categoryName":"Girls Games","tags":[16,135,136,191],"tagNames":["1 Player","Dress Up","Fashion","html5 games for your site"],"width":1024,"height":768,"mobile":false,"plays":0,"rating":"0","description":"Prepare to jet-set across the world with Travel With Me: ASMR Edition! Join Lisa, the stylish vlogger, as she explores stunning destinations, allowing you to dress her up in fabulous outfits that match each location perfectly. From the serene temples of Thailand to the desert adventures in Dubai, and the tropical paradise of Maldives, challenge your fashion skills and create unforgettable looks for every occasion.","instructions":"Use your mouse to play this game on a desktop tap to play on mobile devices","gameUrl":"https://cdn.jsdelivr.net/gh/xazalea/retrograde@main/game/nhqglb7xugf05jp6jeexpj8qzymsog6j.html","imageUrl":null,"videoUrl":null},{"id":27834,"name":"Move the Tower","slug":"move-the-tower","category":10,"categoryName":"Girls Games","tags":[16,492,18,36,41,495,281,191,41,442,83,83,44,60],"tagNames":["1 Player","2025 games","2D","amazing","Hypercasual","2026 games","unity games for your website","html5 games for your site","Hypercasual","Interactive Fiction","Logical","Logical","Physics","puzzleblock"],"width":1920,"height":1080,"mobile":false,"plays":0,"rating":"0","description":"Tower Of Hanoi is an ancient puzzle game that is now available as a game. Try your hand at this classic test of logic and strategy! In the game Move the Tower you will move disks from one rod to another, using the third as a temporary storage. But there is one rule - you can only rearrange one disk at a time, and at the same time you can not put a larger disk on a smaller one. Does it sound simple? But with each new level, the task becomes more complicated, and you will have to use all your wits to overcome it!","instructions":"- Drag and drop discs with your mouse or finger - Only one disc can be rearranged at a time - You cant put a bigger disk on a smaller one - It is necessary to move the tower from the initial rod to any other - In sandbox mode the rules do not apply but","gameUrl":"https://cdn.jsdelivr.net/gh/xazalea/retrograde@main/game/n55cadwdpiv6f3b9u5gdvznkewhxuauf.html","imageUrl":null,"videoUrl":null},{"id":27835,"name":"Bubble Sorting Infinite Remastered","slug":"bubble-sorting-infinite-remastered","category":10,"categoryName":"Girls Games","tags":[21,83,60,206,206],"tagNames":["Bubble Shooter","Logical","puzzleblock","sorting","sorting"],"width":800,"height":450,"mobile":false,"plays":0,"rating":"0","description":"Bubble Sorting Infinite Remastered is a fun and calming puzzle game where you sort colorful bubbles into matching tubes. Just move the bubbles around, stack 3 to 10 of the same color together, and watch them pop away! With endless levels and relaxing gameplay, it&amp;amp;rsquo;s the perfect brain teaser to unwind anytime, anywhere.","instructions":"Play using a mouse or touchpad ndash Tap a tube to pop the top bubble then tap the target tube to move it there","gameUrl":"https://cdn.jsdelivr.net/gh/xazalea/retrograde@main/game/ocw34nv8r32gov4k28iufvmnoydpyewx.html","imageUrl":null,"videoUrl":null},{"id":27895,"name":"ASMR Makeover &amp;amp;amp; Makeup Studio","slug":"asmr-makeover-makeup-studio","category":10,"categoryName":"Girls Games","tags":[135,91],"tagNames":["Dress Up","Makeover"],"width":1080,"height":1920,"mobile":false,"plays":0,"rating":"0","description":"Get ready to dive into the world of beauty and creativity! ASMR Makeup &amp;amp;amp; Makeover Studio offers an incredible opportunity to give your virtual model a stunning makeover. This isnt just any makeover game &amp;amp;mdash; its an immersive experience that combines relaxation and excitement through the power of ASMR!","instructions":"Give your toy a fabulous new look with these skin care and makeup options Check out what the game has to offer Pamper your dolls skin and make it shine with various skin care products Choose from an array of makeup styles and colors to create any d","gameUrl":"https://cdn.jsdelivr.net/gh/xazalea/retrograde@main/game/oylhmja8edugu708hhwbycfcjtofga6a.html","imageUrl":null,"videoUrl":null},{"id":27896,"name":"2048 Space Mission","slug":"2048-space-mission","category":10,"categoryName":"Girls Games","tags":[17,96,7,59,201],"tagNames":["2048","3D Games","Arcade","Math","Number"],"width":350,"height":600,"mobile":false,"plays":0,"rating":"0","description":"2048 Space Mission is an amazing and addictive number puzzle game. Explore tons of challenging levels and try to complete them all! Each level has a different mission. Collect coins to unlock beautiful new game boards or use the hammer to eliminate discs. Have fun!","instructions":"Follow the game instructions","gameUrl":"https://cdn.jsdelivr.net/gh/xazalea/retrograde@main/game/zn8rb2r0aw0km0r3qqojz9pbfcgecx8w.html","imageUrl":null,"videoUrl":null},{"id":27905,"name":"Cool Girl Aesthetics","slug":"cool-girl-aesthetics","category":10,"categoryName":"Girls Games","tags":[477,276,136,31,191,91],"tagNames":["beauty","Design","Fashion","Girls","html5 games for your site","Makeover"],"width":1024,"height":768,"mobile":false,"plays":0,"rating":"0","description":"In Cool Girl Aesthetics, join Mia as she creates her ultimate trendy look! Start by customizing her Stanley cup with fun colors, prints, and accessories. Then, style her headphones, giving them a unique vibe. Next, design her manicure with cool colors, rings, and temporary tattoos for a stylish edge. Complete the look with makeup options like face stickers, colorful braces, and more. Dive into this fun, creative dress-up, and makeover game for endless aesthetic options. Make Mia&amp;amp;rsquo;s look unforgettable!","instructions":"Use your mouse to play this game on a desktop tap to play on mobile devices","gameUrl":"https://cdn.jsdelivr.net/gh/xazalea/retrograde@main/game/tu1dlg1h1mt9mi7v71143be6s1qf3ok4.html","imageUrl":null,"videoUrl":null},{"id":27936,"name":"Eastern Star vs City Style Icon","slug":"eastern-star-vs-city-style-icon","category":10,"categoryName":"Girls Games","tags":[135,136,341,91,187],"tagNames":["Dress Up","Fashion","chair","Makeover","Princess"],"width":800,"height":600,"mobile":false,"plays":0,"rating":"0","description":"Welcome to the world of style, where the ancient palaces of the East meet the splendor of a modern metropolis! Two beautiful heroines are waiting for you in the game: an oriental beauty with exquisite outfits in the style of an Ottoman fairy tale and a stylish urban fashionista conquering the catwalks of the metropolis. During the game, you will become a fashion stylist and create unique looks for each of the girls. Choose your side in the cultural dispute and make this choice a reality!","instructions":"Depending on the gaming device either a click of a computer mouse or a simple touch on touchscreens is used to control it","gameUrl":"https://cdn.jsdelivr.net/gh/xazalea/retrograde@main/game/g682jdzxjp4xdg2ivpgq8kx69gbgzf9j.html","imageUrl":null,"videoUrl":null},{"id":27937,"name":"Mr Hero","slug":"mr-hero","category":10,"categoryName":"Girls Games","tags":[25,36,299,45,442,174,425,60,140,95],"tagNames":["Action","amazing","Street Fighting","free html5 games for your website","Interactive Fiction","kiz10","Punch","puzzleblock","Stickman","Superhero"],"width":480,"height":800,"mobile":false,"plays":0,"rating":"0","description":"With great power comes great fun! Defeat deadly enemies with the powers of a super hero. Lift, burn, freeze opponents who try to get in your way. No one will stop you from obtaining justice. Your team of heroes are here to save the day.","instructions":"Use the mouse or touch to play","gameUrl":"https://cdn.jsdelivr.net/gh/xazalea/retrograde@main/game/f14jllbvqp7oi6z65ky8xwwpheukce0n.html","imageUrl":null,"videoUrl":null},{"id":27943,"name":"Back To School: Uniforms Edition","slug":"back-to-school-uniforms-edition","category":10,"categoryName":"Girls Games","tags":[16,135,136,187,471],"tagNames":["1 Player","Dress Up","Fashion","Princess","unblockedgamesatschool"],"width":1024,"height":768,"mobile":false,"plays":0,"rating":"0","description":"Explore global fashion in Back to School: Uniforms Edition! This fun dress-up game lets you spin the wheel to unlock school uniforms from countries like Japan, the U.S., the U.K., India, France, and South Korea. Customize your character with stylish outfits, accessories, and hairstyles inspired by each culture. Dive into the diversity of school uniforms and become a fashion expert while having fun! Discover all seven uniform styles featured in this online dress-up game for girls and find your favorite. Have a blast!","instructions":"Use your mouse to play the game on a desktop tap to play on mobile devices","gameUrl":"https://cdn.jsdelivr.net/gh/xazalea/retrograde@main/game/szj6wq3b07je7xnpqqrjko1no0qftqlf.html","imageUrl":null,"videoUrl":null},{"id":27976,"name":"Wednesday Light Academia","slug":"wednesday-light-academia","category":10,"categoryName":"Girls Games","tags":[16,477,41,135,136,91],"tagNames":["1 Player","beauty","Hypercasual","Dress Up","Fashion","Makeover"],"width":1024,"height":768,"mobile":false,"plays":0,"rating":"0","description":"Join the trend in Wednesday Light Academia - a fun, immersive makeover game for girls! Today youre becoming a super-talented stylist and your job is to transform Wednesday Addams from a dark e-girl look to a stunning girly-girl fashionista. Explore the fun realms of makeup, hairstyling, and fashion-forward wardrobe choices with this addictive game. Have fun!","instructions":"Use your mouse to play the game on a desktop tap to play on mobile devices","gameUrl":"https://cdn.jsdelivr.net/gh/xazalea/retrograde@main/game/fx8tewjdap559x6osw9t2d9hogs8y7gs.html","imageUrl":null,"videoUrl":null},{"id":27977,"name":"Lafufu Typer","slug":"lafufu-typer","category":10,"categoryName":"Girls Games","tags":[16,18,36,41,177,105,99,99,277,191,41,34,496],"tagNames":["1 Player","2D","amazing","Hypercasual","Coloring","Cute","Funny","Funny","html games for your website","html5 games for your site","Hypercasual","Kids","Labubu"],"width":1080,"height":1920,"mobile":false,"plays":0,"rating":"0","description":"Your goal is to quickly match the correct letters of the colorful and chaotic Lafufus before they reach the barrier and break through your defenses, ending the game and your progress.","instructions":"Use keyboard or touch to play","gameUrl":"https://cdn.jsdelivr.net/gh/xazalea/retrograde@main/game/5mzwe1fglvuzmhbdmdi11mveaitby5p2.html","imageUrl":null,"videoUrl":null},{"id":27978,"name":"CloneUp: Stack Yourself","slug":"cloneup-stack-yourself","category":10,"categoryName":"Girls Games","tags":[41,41,83,28,183,212],"tagNames":["Hypercasual","Hypercasual","Logical","Pixel","Platform","Side Scrolling"],"width":1024,"height":576,"mobile":false,"plays":0,"rating":"0","description":"CloneUp &amp;amp;ndash; Stack Yourself is a 2D pixel-art platformer where your greatest tool is&amp;amp;hellip; yourself! Create clones, stack them, and use them as platforms to dodge spikes, reach new heights, and make your way to the exit door. In CloneUp &amp;amp;ndash; Stack Yourself, you&amp;amp;rsquo;ll use copies of the main character to reach platforms and avoid deadly obstacles. For some unknown reason, you have the power to create clones of yourself and even stack them to form makeshift platforms. Use them to cross dangerous gaps, escape spikes, and climb higher toward the goal. Your mission: reach the exit door on each level, using your reflexes, logic, and clever clone placement.","instructions":"- Move A D or larr rarr - Jump W uarr or Spacebar - Create Clone F Restart Level R Return to Menu P","gameUrl":"https://cdn.jsdelivr.net/gh/xazalea/retrograde@main/game/2a16no4zh14v7ifrv6it71409v9hecyv.html","imageUrl":null,"videoUrl":null},{"id":27981,"name":"Monster Jeep Coloring","slug":"monster-jeep-coloring","category":10,"categoryName":"Girls Games","tags":[491,177,417,99,41,489,34,471],"tagNames":["cargo","Coloring","Creation","Funny","Hypercasual","jeep","Kids","unblockedgamesatschool"],"width":854,"height":480,"mobile":false,"plays":0,"rating":"0","description":"Monster Jeep Coloring is a playful online game made for kids who love creativity. Pick your favorite monster jeep image and bring it to life with your own colors. Once your masterpiece is ready, share it proudly with friends. Let your imagination run wild and enjoy the fun of coloring!","instructions":"Mouse to play","gameUrl":"https://cdn.jsdelivr.net/gh/xazalea/retrograde@main/game/9una69qdetv838um94tm0uttdl2rvj0j.html","imageUrl":null,"videoUrl":null},{"id":28014,"name":"Wednesday Addams Beauty Salon","slug":"wednesday-addams-beauty-salon","category":10,"categoryName":"Girls Games","tags":[105,135,136,31,91],"tagNames":["Cute","Dress Up","Fashion","Girls","Makeover"],"width":800,"height":600,"mobile":false,"plays":0,"rating":"0","description":"Get spooky and stylish in Wednesday Addams Beauty Salon, where gothic meets glam in a 3-level makeover game. Treat Wednesday to a facial, apply stunning dark-themed makeup, and finish off with iconic dress-up fashion in her unique style. From skincare to eyeliner, you control every detail of her transformation. Whether you&amp;amp;rsquo;re a fan of the Addams aesthetic or just love alternative beauty, this salon experience offers a complete glow-up from head to toe.","instructions":"Left Mouse Button Click","gameUrl":"https://cdn.jsdelivr.net/gh/xazalea/retrograde@main/game/23awz8prbs7t7jp4so5e3wlx26bvqloy.html","imageUrl":null,"videoUrl":null},{"id":28017,"name":"Celebrity Wednesday Addams Style","slug":"celebrity-wednesday-addams-style","category":10,"categoryName":"Girls Games","tags":[221,105,135,136,31],"tagNames":["Celebrity","Cute","Dress Up","Fashion","Girls"],"width":800,"height":600,"mobile":false,"plays":0,"rating":"0","description":"Indulge in the iconic and bewitching Celebrity Wednesday Addams Style! Embrace the darkly chic aesthetics, explore mesmerizing outfits, and channel your inner gothic elegance. Discover how celebrities rock the macabre charm of Wednesday Addams with a modern twist. Unleash your inner darkness and redefine elegance with a touch of the mysterious.","instructions":"Left Mouse Button Click","gameUrl":"https://cdn.jsdelivr.net/gh/xazalea/retrograde@main/game/zjbwtois48x4qmybpvm6ocxrgdys1kij.html","imageUrl":null,"videoUrl":null},{"id":28038,"name":"Wednesday Dark Academia","slug":"wednesday-dark-academia","category":10,"categoryName":"Girls Games","tags":[16,135,136,31,91],"tagNames":["1 Player","Dress Up","Fashion","Girls","Makeover"],"width":1024,"height":768,"mobile":false,"plays":0,"rating":"0","description":"Immerse yourself in a world of style and makeup, creating the perfect look for Wednesday. With a variety of unique and stylish options, you can give her a bold school look or a glamorous ballroom appearance. Choose from a range of dark lip colors, eyeshadows, and mascaras to create a one-of-a-kind look thats all your own. From styling her hair to selecting the perfect accessories, you can dress her up for a fun day at school or a special party.","instructions":"Use your mouse to play the game on a desktop tap to play on mobile devices","gameUrl":"https://cdn.jsdelivr.net/gh/xazalea/retrograde@main/game/mxtmzh7m62fxe2al4c6fiu7y7oo6hdz5.html","imageUrl":null,"videoUrl":null},{"id":28053,"name":"Kiki World","slug":"kiki-world","category":10,"categoryName":"Girls Games","tags":[188,381,189],"tagNames":["city","Decorate","Decoration"],"width":1080,"height":1920,"mobile":false,"plays":0,"rating":"0","description":"Decorate and Makeover your home sweet home with Kiki World: Kawaii Doll Decor! Introducing Kiki World: Kawaii Doll Decor, a home decor game designed exclusively for your aesthetic interior design passions. Dive into the world of decor, where clicking, dragging, and dropping chic furniture transforms empty spaces into captivating living areas. Your dream home is here. Take away the trash, throw away old and dirty things! Lets have a home makeover with Kiki World: Kawaii Doll Decor!","instructions":"Perfect for those who love to fantasize about room transformations and have a keen eye for home aesthetics Start designing your ideal living space now and bring your decor dreams to life with Kiki World Kawaii Doll Decor","gameUrl":"https://cdn.jsdelivr.net/gh/xazalea/retrograde@main/game/5lip2anm36bs3599zdriq4wpvc6km63w.html","imageUrl":null,"videoUrl":null},{"id":28067,"name":"Anime Fashion World Met Gala Magic","slug":"anime-fashion-world-met-gala-magic","category":10,"categoryName":"Girls Games","tags":[292,135,136,31],"tagNames":["Anime","Dress Up","Fashion","Girls"],"width":800,"height":600,"mobile":false,"plays":0,"rating":"0","description":"Get ready for the most dazzling fashion night of the year in Anime Fashion World: Met Gala Magic! Style your favorite anime queens&amp;amp;mdash;Nezuko Kamado, Usagi Tsukino, Zero Two, and Nami&amp;amp;mdash;as they prep for the Met Gala runway. From dramatic dresses and sparkly makeup to bold hair and accessories, you&amp;amp;rsquo;ll guide each character through their own glam makeover. Every step is all about expression, creativity, and bringing out each character&amp;amp;rsquo;s unique style. There&amp;amp;rsquo;s no competition or timer&amp;amp;mdash;just pure fun. Mix and match outfits, test wild looks, or go elegant. Each transformation ends with a fashion-forward red carpet moment.","instructions":"Left Mouse Button Click or Tap to Play","gameUrl":"https://cdn.jsdelivr.net/gh/xazalea/retrograde@main/game/v78gts29vn3bsky26p0hjzd6leg33fj1.html","imageUrl":null,"videoUrl":null},{"id":28074,"name":"My Cute Restaurant","slug":"my-cute-restaurant","category":10,"categoryName":"Girls Games","tags":[26,133,197],"tagNames":["Animal","Cooking","Restaurant"],"width":1280,"height":720,"mobile":false,"plays":0,"rating":"0","description":"Are you ready to spend a day as a chief in the restaurant? Welcome to My Cute Restaurant, a casual cooking game, exclusively for girl gamers. If you are interested in cooking or DIY games, never miss this chance to have fun! Cook delicious dishes, serve your animal customers, and clean the table after the customer leaves.","instructions":"Mouse click or tap to play","gameUrl":"https://cdn.jsdelivr.net/gh/xazalea/retrograde@main/game/dy7146w27hzms4kts0qgnkrywdvf5xd9.html","imageUrl":null,"videoUrl":null},{"id":28079,"name":"Ibiza Foam Party","slug":"ibiza-foam-party","category":10,"categoryName":"Girls Games","tags":[16,135,136,91,156,93],"tagNames":["1 Player","Dress Up","Fashion","Makeover","8 Ball Pool","Summer"],"width":1024,"height":768,"mobile":false,"plays":0,"rating":"0","description":"Get ready to dive into the craziest virtual party experience with Ibiza Foam Party! Immerse yourself in the electrifying atmosphere of Ibiza, the party capital of the world. Splash around in a sea of bubbles, dance to pumping beats, and compete against friends in wild and energetic beauty challenges. Ready to get the fun started? Then join Gina and Selena in this colorful, summer-themed makeover game for girls, and help our BFFs deal with their dazzling party looks. From scrubbing and skincare to makeup and fabulous fashion, you&amp;amp;rsquo;re the ultimate stylist ensuring these besties shine bright under the Ibiza sun. Have a blast!","instructions":"Use your mouse to play on a dektop tap to play on mobile devices","gameUrl":"https://cdn.jsdelivr.net/gh/xazalea/retrograde@main/game/nmhfepwj0c50oqnnjwcqa0rihx4hp2td.html","imageUrl":null,"videoUrl":null},{"id":28087,"name":"Paper Doll Diary: Dress Up DIY","slug":"paper-doll-diary-dress-up-diy","category":10,"categoryName":"Girls Games","tags":[135],"tagNames":["Dress Up"],"width":1080,"height":1920,"mobile":false,"plays":0,"rating":"0","description":"Icon image Paper Doll Diary: Dress Up DIY About this game Welcome to Paper Doll Diary: Doll DressUp, where the timeless charm of DIY paper dolls meets the exhilarating world of fashion dress up! Step into a realm of creativity and style where you become the master stylist of your enchanting paper doll dress up. With an expansive wardrobe featuring over 1000 fashion items, including the latest in trendy attire, distinctive accessories, diverse hairstyles, and soothing ASMR makeup touches, your creative potential is limitless.","instructions":"Create the ultimate sanctuary for your DIY paper doll excel in style challenges and customize every aspect of her world in this extraordinary dress up game Paper Doll Diary Doll DressUp transcends the typical princess game inviting you into a univers","gameUrl":"https://cdn.jsdelivr.net/gh/xazalea/retrograde@main/game/g954n45w3qik98x0ezqpmp8i15258a0d.html","imageUrl":null,"videoUrl":null},{"id":28088,"name":"NYFW Street Style","slug":"nyfw-street-style","category":10,"categoryName":"Girls Games","tags":[105,135,136,31],"tagNames":["Cute","Dress Up","Fashion","Girls"],"width":800,"height":600,"mobile":false,"plays":0,"rating":"0","description":"Welcome to NYFW Street Style. Rainbow girls are excited to try some really amazing street-style fashion outfits and accessories! So, play it and get inspired for your own wardrobe! Check out all those fabulous items and choose your favorites to dress the beautiful model up with style! She should look amazing in the end, so make sure you pick up the perfect outfit for her!","instructions":"Left Mouse Button Click or Tap to Play","gameUrl":"https://cdn.jsdelivr.net/gh/xazalea/retrograde@main/game/pk41kqfnev0xppk2eknami0nw27ikow2.html","imageUrl":null,"videoUrl":null},{"id":28090,"name":"Labubu Coloring Adventure","slug":"labubu-coloring-adventure","category":10,"categoryName":"Girls Games","tags":[177,54,99,41,34,496,471],"tagNames":["Coloring","Educational","Funny","Hypercasual","Kids","Labubu","unblockedgamesatschool"],"width":854,"height":480,"mobile":false,"plays":0,"rating":"0","description":"Labubu Coloring Adventure is a splashy journey into a world full of color, fun, and furry mischief!. Grab your digital crayons and bring Labubu and friends to life with every stroke!. From goofy grins to magical backgrounds, every page is a new surprise! Explore, color, giggle, and create your own cartoon adventure with Labubu!. It&amp;amp;rsquo;s not just coloring: it&amp;amp;rsquo;s a giggle-filled adventure waiting at every tap!","instructions":"Mouse to play","gameUrl":"https://cdn.jsdelivr.net/gh/xazalea/retrograde@main/game/a8mfgt4ad1wnwc8v69y36pjvo4v9r6gn.html","imageUrl":null,"videoUrl":null},{"id":28106,"name":"Alfa Romeo Coloring","slug":"alfa-romeo-coloring","category":10,"categoryName":"Girls Games","tags":[194,491,177,99,31,191,41,35,471],"tagNames":["Fall Boys","cargo","Coloring","Funny","Girls","html5 games for your site","Hypercasual","Mobile","unblockedgamesatschool"],"width":854,"height":480,"mobile":false,"plays":0,"rating":"0","description":"Alfa Romeo Coloring puts you behind the wheel of imagination. Grab your digital crayons and paint these cool cars in wild, wacky colors. Red? Blue? Rainbow wheels? Anything goes! Who says race cars have to be red? In Alfa Romeo Coloring, kids can design their dream rides in bright, bold, and goofy colors. It is like a car show in a crayon box!","instructions":"Mouse click or tap to play","gameUrl":"https://cdn.jsdelivr.net/gh/xazalea/retrograde@main/game/g8uzj3vlv6pmk61p2o8e2bgow84d4j9n.html","imageUrl":null,"videoUrl":null},{"id":28127,"name":"Italian Brainrot Merge","slug":"italian-brainrot-merge","category":10,"categoryName":"Girls Games","tags":[16,487,479,487,99,99,480,60,482,482],"tagNames":["1 Player","Brainrot sahuuur","Brainrot Italian","Brainrot sahuuur","Funny","Funny","Italian Brainrot","puzzleblock","Tung Tung Tung Sahur","Tung Tung Tung Sahur"],"width":1280,"height":720,"mobile":false,"plays":0,"rating":"0","description":"Dive into chaos with Italian Brainrot Merge! From Tung Tung Sahur to Tralalero Tralala, from Cappuccino Ballerina to Brr Brr Patapim, collect and merge the most absurd Italian brainrot characters. Combine two of the same, watch them evolve, and fill your board with the strangest, funniest icons you&amp;amp;rsquo;ve ever seen. The more you merge, the crazier it gets. Unlock them all, rack up points, and enjoy the most unhinged puzzle experience!","instructions":"Drag with your mouse or tap and drag to drop a character Merge two of the same type to reveal a brand new one Discover all the wild ones Tung Tung Sahur Bombardiro Crocodilo Trippi Troppi and more Keep merging to grow your score and avoid running o","gameUrl":"https://cdn.jsdelivr.net/gh/xazalea/retrograde@main/game/eoucplyzhq0f2j0ls9iszsist8c7gxac.html","imageUrl":null,"videoUrl":null},{"id":28133,"name":"Dazzling Divas Makeup","slug":"dazzling-divas-makeup","category":10,"categoryName":"Girls Games","tags":[477,136,91],"tagNames":["beauty","Fashion","Makeover"],"width":1024,"height":768,"mobile":false,"plays":0,"rating":"0","description":"Inspired by My Little Pony, this colorful dress-up game lets you unleash your creativity and create magical makeup looks for three fabulous girls: Lila, Mimi, and Roxy. Style each diva with makeup influences from iconic ponies like Fluttershy, Pinkie Pie, and Rainbow Dash, then complete their look with trendy tops and accessories. With endless outfit combos and a dash of sparkling magic, this game offers the ultimate glam experience for fashion lovers. Get ready to transform these divas into dazzling stars!","instructions":"Use your mouse to play the game on a desktop tap to play on mobile devices","gameUrl":"https://cdn.jsdelivr.net/gh/xazalea/retrograde@main/game/g3tate7kzysd4zq2vl4ci37nswhbhvs0.html","imageUrl":null,"videoUrl":null},{"id":28141,"name":"Celebrity BarbieCore Aesthetic Look","slug":"celebrity-barbiecore-aesthetic-look","category":10,"categoryName":"Girls Games","tags":[304,105,135,136,31],"tagNames":["Barbie","Cute","Dress Up","Fashion","Girls"],"width":800,"height":600,"mobile":false,"plays":0,"rating":"0","description":"Welcome to Celebrity BarbieCore Aesthetic Look. Step into the glamorous world of celebrity fashion with this game! Six famous stars are inspired by BarbieCore&amp;amp;rsquo;s iconic style and are eager to try her trends. From dazzling red carpet gowns to chic streetwear, they&amp;amp;rsquo;ll explore the diverse range of BarbieCore aesthetics. Experiment with stunning hairstyles, flawless makeup, and luxurious accessories. Become their personal stylist and guide them to embody the essence of BarbieCore&amp;amp;rsquo;s fashion-forward allure. Unleash your creativity and make them shine like true style icons!","instructions":"Left Mouse Button Click","gameUrl":"https://cdn.jsdelivr.net/gh/xazalea/retrograde@main/game/xp0vfhnwdhhniu52fyb1vu3lezbl85vm.html","imageUrl":null,"videoUrl":null}]}